^C:\USERS\MARK\DOCUMENTS\VISUAL STUDIO 2010\PROJECTS\LAB5A\LAB5A\MAIN.CPP
C:\USERS\MARK\DOCUMENTS\VISUAL STUDIO 2010\PROJECTS\LAB5A\LAB5A\DEBUG\MAIN.OBJ
C:\USERS\MARK\DOCUMENTS\VISUAL STUDIO 2010\PROJECTS\LAB5A\LAB5A\DEBUG\VC100.PDB
^M:\VISUAL STUDIO 2010\PROJECTS\2012 - 13\GRAPHICS PROGRAMMING\LAB5\LAB5A\LAB5A\MAIN.CPP
M:\VISUAL STUDIO 2010\PROJECTS\2012 - 13\GRAPHICS PROGRAMMING\LAB5\LAB5A\LAB5A\DEBUG\MAIN.OBJ
M:\VISUAL STUDIO 2010\PROJECTS\2012 - 13\GRAPHICS PROGRAMMING\LAB5\LAB5A\LAB5A\DEBUG\VC100.PDB
^F:\2012 - 13\GRAPHICS PROGRAMMING\LAB5\LAB5A\LAB5A\MAIN.CPP
F:\2012 - 13\GRAPHICS PROGRAMMING\LAB5\LAB5A\LAB5A\DEBUG\MAIN.OBJ
F:\2012 - 13\GRAPHICS PROGRAMMING\LAB5\LAB5A\LAB5A\DEBUG\VC100.PDB
^D:\ABERTAY\LABWORK\GRAPHICS PROGRAMMING\COURSEWORK 1\LAB5A\MAIN.CPP
D:\ABERTAY\LABWORK\GRAPHICS PROGRAMMING\COURSEWORK 1\LAB5A\DEBUG\MAIN.OBJ
D:\ABERTAY\LABWORK\GRAPHICS PROGRAMMING\COURSEWORK 1\LAB5A\DEBUG\VC100.PDB
^D:\ABERTAY\LABWORK\GRAPHICS PROGRAMMING\COURSEWORK 1\LAB5A\MAIN.CPP|D:\ABERTAY\LABWORK\GRAPHICS PROGRAMMING\COURSEWORK 1\LAB5A\SPRITE.CPP
D:\ABERTAY\LABWORK\GRAPHICS PROGRAMMING\COURSEWORK 1\LAB5A\DEBUG\MAIN.OBJ
D:\ABERTAY\LABWORK\GRAPHICS PROGRAMMING\COURSEWORK 1\LAB5A\DEBUG\SPRITE.OBJ
^D:\ABERTAY\LABWORK\GRAPHICS PROGRAMMING\COURSEWORK 1\LAB5A\SPRITE.CPP
D:\ABERTAY\LABWORK\GRAPHICS PROGRAMMING\COURSEWORK 1\LAB5A\DEBUG\VC100.PDB
D:\ABERTAY\LABWORK\GRAPHICS PROGRAMMING\COURSEWORK 1\LAB5A\DEBUG\SPRITE.OBJ
^D:\ABERTAY\LABWORK\GRAPHICS PROGRAMMING\COURSEWORK 1\LAB5A\INPUT.CPP|D:\ABERTAY\LABWORK\GRAPHICS PROGRAMMING\COURSEWORK 1\LAB5A\MAIN.CPP
D:\ABERTAY\LABWORK\GRAPHICS PROGRAMMING\COURSEWORK 1\LAB5A\DEBUG\INPUT.OBJ
^D:\ABERTAY\LABWORK\GRAPHICS PROGRAMMING\COURSEWORK 1\LAB5A\INPUT.CPP
D:\ABERTAY\LABWORK\GRAPHICS PROGRAMMING\COURSEWORK 1\LAB5A\DEBUG\VC100.PDB
D:\ABERTAY\LABWORK\GRAPHICS PROGRAMMING\COURSEWORK 1\LAB5A\DEBUG\INPUT.OBJ
^M:\GIT\CONTEND\LAB5A\INPUT.CPP|M:\GIT\CONTEND\LAB5A\MAIN.CPP|M:\GIT\CONTEND\LAB5A\SPRITE.CPP
M:\GIT\CONTEND\LAB5A\DEBUG\INPUT.OBJ
M:\GIT\CONTEND\LAB5A\DEBUG\MAIN.OBJ
M:\GIT\CONTEND\LAB5A\DEBUG\SPRITE.OBJ
^M:\GIT\CONTEND\LAB5A\INPUT.CPP
M:\GIT\CONTEND\LAB5A\DEBUG\VC100.PDB
^M:\GIT\CONTEND\LAB5A\MAIN.CPP
M:\GIT\CONTEND\LAB5A\DEBUG\VC100.PDB
^M:\GIT\CONTEND\LAB5A\SPRITE.CPP
M:\GIT\CONTEND\LAB5A\DEBUG\VC100.PDB
M:\GIT\CONTEND\LAB5A\DEBUG\SPRITE.OBJ
^D:\ABERTAY\LABWORK\GRAPHICS PROGRAMMING\COURSEWORK 1\LAB5A\INPUT.CPP|D:\ABERTAY\LABWORK\GRAPHICS PROGRAMMING\COURSEWORK 1\LAB5A\MAIN.CPP|D:\ABERTAY\LABWORK\GRAPHICS PROGRAMMING\COURSEWORK 1\LAB5A\SPRITE.CPP
D:\ABERTAY\LABWORK\GRAPHICS PROGRAMMING\COURSEWORK 1\LAB5A\DEBUG\INPUT.OBJ
D:\ABERTAY\LABWORK\GRAPHICS PROGRAMMING\COURSEWORK 1\LAB5A\DEBUG\MAIN.OBJ
D:\ABERTAY\LABWORK\GRAPHICS PROGRAMMING\COURSEWORK 1\LAB5A\DEBUG\SPRITE.OBJ
^D:\ABERTAY\LABWORK\GRAPHICS PROGRAMMING\COURSEWORK 1\LAB5A\BACKGROUND.CPP|D:\ABERTAY\LABWORK\GRAPHICS PROGRAMMING\COURSEWORK 1\LAB5A\MAIN.CPP
D:\ABERTAY\LABWORK\GRAPHICS PROGRAMMING\COURSEWORK 1\LAB5A\DEBUG\BACKGROUND.OBJ
D:\ABERTAY\LABWORK\GRAPHICS PROGRAMMING\COURSEWORK 1\LAB5A\DEBUG\MAIN.OBJ
^D:\ABERTAY\LABWORK\GRAPHICS PROGRAMMING\COURSEWORK 1\LAB5A\BACKGROUND.CPP
D:\ABERTAY\LABWORK\GRAPHICS PROGRAMMING\COURSEWORK 1\LAB5A\DEBUG\VC100.PDB
D:\ABERTAY\LABWORK\GRAPHICS PROGRAMMING\COURSEWORK 1\LAB5A\DEBUG\BACKGROUND.OBJ
^D:\ABERTAY\LABWORK\GRAPHICS PROGRAMMING\COURSEWORK 1\LAB5A\BACKGROUND.CPP|D:\ABERTAY\LABWORK\GRAPHICS PROGRAMMING\COURSEWORK 1\LAB5A\MAIN.CPP|D:\ABERTAY\LABWORK\GRAPHICS PROGRAMMING\COURSEWORK 1\LAB5A\TILE.CPP
D:\ABERTAY\LABWORK\GRAPHICS PROGRAMMING\COURSEWORK 1\LAB5A\DEBUG\BACKGROUND.OBJ
D:\ABERTAY\LABWORK\GRAPHICS PROGRAMMING\COURSEWORK 1\LAB5A\DEBUG\TILE.OBJ
^D:\ABERTAY\LABWORK\GRAPHICS PROGRAMMING\COURSEWORK 1\LAB5A\TILE.CPP
D:\ABERTAY\LABWORK\GRAPHICS PROGRAMMING\COURSEWORK 1\LAB5A\DEBUG\VC100.PDB
^M:\GIT\CONTEND\LAB5A\BACKGROUND.CPP|M:\GIT\CONTEND\LAB5A\INPUT.CPP|M:\GIT\CONTEND\LAB5A\MAIN.CPP|M:\GIT\CONTEND\LAB5A\SPRITE.CPP|M:\GIT\CONTEND\LAB5A\TILE.CPP
M:\GIT\CONTEND\LAB5A\DEBUG\BACKGROUND.OBJ
M:\GIT\CONTEND\LAB5A\DEBUG\INPUT.OBJ
M:\GIT\CONTEND\LAB5A\DEBUG\MAIN.OBJ
M:\GIT\CONTEND\LAB5A\DEBUG\SPRITE.OBJ
M:\GIT\CONTEND\LAB5A\DEBUG\TILE.OBJ
^M:\GIT\CONTEND\LAB5A\BACKGROUND.CPP
M:\GIT\CONTEND\LAB5A\DEBUG\VC100.PDB
M:\GIT\CONTEND\LAB5A\DEBUG\BACKGROUND.OBJ
^M:\GIT\CONTEND\LAB5A\TILE.CPP
M:\GIT\CONTEND\LAB5A\DEBUG\VC100.PDB
^M:\GIT\CONTEND\LAB5A\BACKGROUND.CPP|M:\GIT\CONTEND\LAB5A\MAIN.CPP
M:\GIT\CONTEND\LAB5A\DEBUG\BACKGROUND.OBJ
M:\GIT\CONTEND\LAB5A\DEBUG\MAIN.OBJ
^M:\GIT\CONTEND\LAB5A\BACKGROUND.CPP|M:\GIT\CONTEND\LAB5A\INPUT.CPP|M:\GIT\CONTEND\LAB5A\MAIN.CPP|M:\GIT\CONTEND\LAB5A\SEEKER.CPP|M:\GIT\CONTEND\LAB5A\SPRITE.CPP
M:\GIT\CONTEND\LAB5A\DEBUG\INPUT.OBJ
M:\GIT\CONTEND\LAB5A\DEBUG\MAIN.OBJ
^M:\GIT\CONTEND\LAB5A\SEEKER.CPP
M:\GIT\CONTEND\LAB5A\DEBUG\VC100.PDB
^M:\GIT\CONTEND\LAB5A\BACKGROUND.CPP|M:\GIT\CONTEND\LAB5A\MAIN.CPP|M:\GIT\CONTEND\LAB5A\SEEKER.CPP|M:\GIT\CONTEND\LAB5A\SPRITE.CPP
M:\GIT\CONTEND\LAB5A\DEBUG\SPRITE.OBJ
M:\GIT\CONTEND\LAB5A\DEBUG\MAIN.OBJ
^M:\GIT\CONTEND\LAB5A\BACKGROUND.CPP|M:\GIT\CONTEND\LAB5A\MAIN.CPP|M:\GIT\CONTEND\LAB5A\SEEKER.CPP
M:\GIT\CONTEND\LAB5A\DEBUG\SEEKER.OBJ
M:\GIT\CONTEND\LAB5A\DEBUG\MAIN.OBJ
^D:\ABERTAY\LABWORK\GRAPHICS PROGRAMMING\COURSEWORK 1\LAB5A\BACKGROUND.CPP|D:\ABERTAY\LABWORK\GRAPHICS PROGRAMMING\COURSEWORK 1\LAB5A\INPUT.CPP|D:\ABERTAY\LABWORK\GRAPHICS PROGRAMMING\COURSEWORK 1\LAB5A\MAIN.CPP|D:\ABERTAY\LABWORK\GRAPHICS PROGRAMMING\COURSEWORK 1\LAB5A\SEEKER.CPP|D:\ABERTAY\LABWORK\GRAPHICS PROGRAMMING\COURSEWORK 1\LAB5A\SPRITE.CPP|D:\ABERTAY\LABWORK\GRAPHICS PROGRAMMING\COURSEWORK 1\LAB5A\TILE.CPP
D:\ABERTAY\LABWORK\GRAPHICS PROGRAMMING\COURSEWORK 1\LAB5A\DEBUG\BACKGROUND.OBJ
D:\ABERTAY\LABWORK\GRAPHICS PROGRAMMING\COURSEWORK 1\LAB5A\DEBUG\INPUT.OBJ
D:\ABERTAY\LABWORK\GRAPHICS PROGRAMMING\COURSEWORK 1\LAB5A\DEBUG\MAIN.OBJ
D:\ABERTAY\LABWORK\GRAPHICS PROGRAMMING\COURSEWORK 1\LAB5A\DEBUG\SEEKER.OBJ
D:\ABERTAY\LABWORK\GRAPHICS PROGRAMMING\COURSEWORK 1\LAB5A\DEBUG\SPRITE.OBJ
D:\ABERTAY\LABWORK\GRAPHICS PROGRAMMING\COURSEWORK 1\LAB5A\DEBUG\TILE.OBJ
^D:\ABERTAY\LABWORK\GRAPHICS PROGRAMMING\COURSEWORK 1\LAB5A\SEEKER.CPP
D:\ABERTAY\LABWORK\GRAPHICS PROGRAMMING\COURSEWORK 1\LAB5A\DEBUG\VC100.PDB
^D:\ABERTAY\LABWORK\GRAPHICS PROGRAMMING\COURSEWORK 1\LAB5A\CSPRITE.CPP
D:\ABERTAY\LABWORK\GRAPHICS PROGRAMMING\COURSEWORK 1\LAB5A\DEBUG\VC100.PDB
D:\ABERTAY\LABWORK\GRAPHICS PROGRAMMING\COURSEWORK 1\LAB5A\DEBUG\CSPRITE.OBJ
^D:\ABERTAY\LABWORK\GRAPHICS PROGRAMMING\COURSEWORK 1\LAB5A\CSPRITE.CPP|D:\ABERTAY\LABWORK\GRAPHICS PROGRAMMING\COURSEWORK 1\LAB5A\INPUT.CPP|D:\ABERTAY\LABWORK\GRAPHICS PROGRAMMING\COURSEWORK 1\LAB5A\MAIN.CPP|D:\ABERTAY\LABWORK\GRAPHICS PROGRAMMING\COURSEWORK 1\LAB5A\SEEKER.CPP|D:\ABERTAY\LABWORK\GRAPHICS PROGRAMMING\COURSEWORK 1\LAB5A\SPRITE.CPP
D:\ABERTAY\LABWORK\GRAPHICS PROGRAMMING\COURSEWORK 1\LAB5A\DEBUG\CSPRITE.OBJ
D:\ABERTAY\LABWORK\GRAPHICS PROGRAMMING\COURSEWORK 1\LAB5A\DEBUG\MAIN.OBJ
^D:\ABERTAY\LABWORK\GRAPHICS PROGRAMMING\COURSEWORK 1\LAB5A\MAIN.CPP|D:\ABERTAY\LABWORK\GRAPHICS PROGRAMMING\COURSEWORK 1\LAB5A\SEEKER.CPP
D:\ABERTAY\LABWORK\GRAPHICS PROGRAMMING\COURSEWORK 1\LAB5A\DEBUG\MAIN.OBJ
^D:\ABERTAY\LABWORK\GRAPHICS PROGRAMMING\COURSEWORK 1\LAB5A\CSPRITE.CPP|D:\ABERTAY\LABWORK\GRAPHICS PROGRAMMING\COURSEWORK 1\LAB5A\MAIN.CPP|D:\ABERTAY\LABWORK\GRAPHICS PROGRAMMING\COURSEWORK 1\LAB5A\SEEKER.CPP
D:\ABERTAY\LABWORK\GRAPHICS PROGRAMMING\COURSEWORK 1\LAB5A\DEBUG\CSPRITE.OBJ
D:\ABERTAY\LABWORK\GRAPHICS PROGRAMMING\COURSEWORK 1\LAB5A\DEBUG\MAIN.OBJ
D:\ABERTAY\LABWORK\GRAPHICS PROGRAMMING\COURSEWORK 1\LAB5A\DEBUG\SEEKER.OBJ
^D:\ABERTAY\LABWORK\GRAPHICS PROGRAMMING\COURSEWORK 1\LAB5A\CSPRITE.CPP|D:\ABERTAY\LABWORK\GRAPHICS PROGRAMMING\COURSEWORK 1\LAB5A\INPUT.CPP|D:\ABERTAY\LABWORK\GRAPHICS PROGRAMMING\COURSEWORK 1\LAB5A\MAIN.CPP|D:\ABERTAY\LABWORK\GRAPHICS PROGRAMMING\COURSEWORK 1\LAB5A\SEEKER.CPP
D:\ABERTAY\LABWORK\GRAPHICS PROGRAMMING\COURSEWORK 1\LAB5A\DEBUG\CSPRITE.OBJ
D:\ABERTAY\LABWORK\GRAPHICS PROGRAMMING\COURSEWORK 1\LAB5A\DEBUG\INPUT.OBJ
D:\ABERTAY\LABWORK\GRAPHICS PROGRAMMING\COURSEWORK 1\LAB5A\DEBUG\MAIN.OBJ
D:\ABERTAY\LABWORK\GRAPHICS PROGRAMMING\COURSEWORK 1\LAB5A\DEBUG\SEEKER.OBJ
^M:\GIT\CONTEND\LAB5A\BACKGROUND.CPP|M:\GIT\CONTEND\LAB5A\CSPRITE.CPP|M:\GIT\CONTEND\LAB5A\INPUT.CPP|M:\GIT\CONTEND\LAB5A\MAIN.CPP|M:\GIT\CONTEND\LAB5A\SEEKER.CPP|M:\GIT\CONTEND\LAB5A\SPRITE.CPP|M:\GIT\CONTEND\LAB5A\TILE.CPP
M:\GIT\CONTEND\LAB5A\DEBUG\BACKGROUND.OBJ
M:\GIT\CONTEND\LAB5A\DEBUG\CSPRITE.OBJ
M:\GIT\CONTEND\LAB5A\DEBUG\INPUT.OBJ
M:\GIT\CONTEND\LAB5A\DEBUG\MAIN.OBJ
M:\GIT\CONTEND\LAB5A\DEBUG\SEEKER.OBJ
M:\GIT\CONTEND\LAB5A\DEBUG\SPRITE.OBJ
M:\GIT\CONTEND\LAB5A\DEBUG\TILE.OBJ
^M:\GIT\CONTEND\LAB5A\CSPRITE.CPP
M:\GIT\CONTEND\LAB5A\DEBUG\VC100.PDB
^M:\GIT\CONTEND\LAB5A\BACKGROUND.CPP|M:\GIT\CONTEND\LAB5A\CSPRITE.CPP|M:\GIT\CONTEND\LAB5A\MAIN.CPP|M:\GIT\CONTEND\LAB5A\SEEKER.CPP|M:\GIT\CONTEND\LAB5A\SPRITE.CPP
M:\GIT\CONTEND\LAB5A\DEBUG\SPRITE.OBJ
M:\GIT\CONTEND\LAB5A\DEBUG\BACKGROUND.OBJ
M:\GIT\CONTEND\LAB5A\DEBUG\SEEKER.OBJ
^M:\GIT\CONTEND\LAB5A\CSPRITE.CPP|M:\GIT\CONTEND\LAB5A\MAIN.CPP|M:\GIT\CONTEND\LAB5A\SEEKER.CPP|M:\GIT\CONTEND\LAB5A\SPRITE.CPP
M:\GIT\CONTEND\LAB5A\DEBUG\MAIN.OBJ
M:\GIT\CONTEND\LAB5A\DEBUG\SPRITE.OBJ
M:\GIT\CONTEND\LAB5A\DEBUG\CSPRITE.OBJ
^M:\GIT\CONTEND\LAB5A\CSPRITE.CPP|M:\GIT\CONTEND\LAB5A\MAIN.CPP|M:\GIT\CONTEND\LAB5A\SEEKER.CPP
M:\GIT\CONTEND\LAB5A\DEBUG\CSPRITE.OBJ
M:\GIT\CONTEND\LAB5A\DEBUG\MAIN.OBJ
M:\GIT\CONTEND\LAB5A\DEBUG\SEEKER.OBJ
^M:\GIT\CONTEND\LAB5A\BULLET.CPP|M:\GIT\CONTEND\LAB5A\MAIN.CPP
M:\GIT\CONTEND\LAB5A\DEBUG\BULLET.OBJ
M:\GIT\CONTEND\LAB5A\DEBUG\MAIN.OBJ
^M:\GIT\CONTEND\LAB5A\BULLET.CPP
M:\GIT\CONTEND\LAB5A\DEBUG\VC100.PDB
^M:\GIT\CONTEND\LAB5A\BULLET.CPP|M:\GIT\CONTEND\LAB5A\CSPRITE.CPP|M:\GIT\CONTEND\LAB5A\MAIN.CPP|M:\GIT\CONTEND\LAB5A\SEEKER.CPP
M:\GIT\CONTEND\LAB5A\DEBUG\BULLET.OBJ
M:\GIT\CONTEND\LAB5A\DEBUG\CSPRITE.OBJ
^M:\GIT\CONTEND\LAB5A\MAIN.CPP|M:\GIT\CONTEND\LAB5A\SEEKER.CPP
M:\GIT\CONTEND\LAB5A\DEBUG\MAIN.OBJ
M:\GIT\CONTEND\LAB5A\DEBUG\SEEKER.OBJ
^M:\GIT\CONTEND\LAB5A\BULLET.CPP|M:\GIT\CONTEND\LAB5A\CSPRITE.CPP|M:\GIT\CONTEND\LAB5A\MAIN.CPP|M:\GIT\CONTEND\LAB5A\SEEKER.CPP|M:\GIT\CONTEND\LAB5A\SPRITE.CPP
M:\GIT\CONTEND\LAB5A\DEBUG\MAIN.OBJ
M:\GIT\CONTEND\LAB5A\DEBUG\BULLET.OBJ
M:\GIT\CONTEND\LAB5A\DEBUG\SEEKER.OBJ
M:\GIT\CONTEND\LAB5A\DEBUG\SPRITE.OBJ
^M:\GIT\CONTEND\LAB5A\CSPRITE.CPP|M:\GIT\CONTEND\LAB5A\INPUT.CPP|M:\GIT\CONTEND\LAB5A\MAIN.CPP|M:\GIT\CONTEND\LAB5A\SEEKER.CPP|M:\GIT\CONTEND\LAB5A\SINGLETON.CPP|M:\GIT\CONTEND\LAB5A\SPRITE.CPP
M:\GIT\CONTEND\LAB5A\DEBUG\SINGLETON.OBJ
M:\GIT\CONTEND\LAB5A\DEBUG\SPRITE.OBJ
M:\GIT\CONTEND\LAB5A\DEBUG\CSPRITE.OBJ
M:\GIT\CONTEND\LAB5A\DEBUG\INPUT.OBJ
M:\GIT\CONTEND\LAB5A\DEBUG\SEEKER.OBJ
^M:\GIT\CONTEND\LAB5A\SINGLETON.CPP
M:\GIT\CONTEND\LAB5A\DEBUG\VC100.PDB
^M:\GIT\CONTEND\LAB5A\CSPRITE.CPP|M:\GIT\CONTEND\LAB5A\INPUT.CPP|M:\GIT\CONTEND\LAB5A\MAIN.CPP|M:\GIT\CONTEND\LAB5A\SEEKER.CPP
M:\GIT\CONTEND\LAB5A\DEBUG\CSPRITE.OBJ
M:\GIT\CONTEND\LAB5A\DEBUG\INPUT.OBJ
M:\GIT\CONTEND\LAB5A\DEBUG\SEEKER.OBJ
M:\GIT\CONTEND\LAB5A\DEBUG\MAIN.OBJ
^M:\GIT\CONTEND\LAB5A\CSPRITE.CPP|M:\GIT\CONTEND\LAB5A\INPUT.CPP|M:\GIT\CONTEND\LAB5A\MAIN.CPP|M:\GIT\CONTEND\LAB5A\SEEKER.CPP|M:\GIT\CONTEND\LAB5A\SINGLETON.CPP
M:\GIT\CONTEND\LAB5A\DEBUG\CSPRITE.OBJ
M:\GIT\CONTEND\LAB5A\DEBUG\INPUT.OBJ
M:\GIT\CONTEND\LAB5A\DEBUG\SINGLETON.OBJ
M:\GIT\CONTEND\LAB5A\DEBUG\SEEKER.OBJ
^M:\GIT\CONTEND\LAB5A\CSPRITE.CPP|M:\GIT\CONTEND\LAB5A\MAIN.CPP
M:\GIT\CONTEND\LAB5A\DEBUG\CSPRITE.OBJ
^M:\GIT\CONTEND\LAB5A\CSPRITE.CPP|M:\GIT\CONTEND\LAB5A\SPRITE.CPP
M:\GIT\CONTEND\LAB5A\DEBUG\CSPRITE.OBJ
M:\GIT\CONTEND\LAB5A\DEBUG\SPRITE.OBJ
^M:\GIT\CONTEND\LAB5A\CSPRITE.CPP|M:\GIT\CONTEND\LAB5A\INPUT.CPP|M:\GIT\CONTEND\LAB5A\MAIN.CPP|M:\GIT\CONTEND\LAB5A\SEEKER.CPP|M:\GIT\CONTEND\LAB5A\SPRITE.CPP
M:\GIT\CONTEND\LAB5A\DEBUG\INPUT.OBJ
M:\GIT\CONTEND\LAB5A\DEBUG\MAIN.OBJ
M:\GIT\CONTEND\LAB5A\DEBUG\CSPRITE.OBJ
M:\GIT\CONTEND\LAB5A\DEBUG\SEEKER.OBJ
M:\GIT\CONTEND\LAB5A\DEBUG\SPRITE.OBJ
^M:\GIT\CONTEND\LAB5A\INPUT.CPP|M:\GIT\CONTEND\LAB5A\MAIN.CPP
M:\GIT\CONTEND\LAB5A\DEBUG\INPUT.OBJ
M:\GIT\CONTEND\LAB5A\DEBUG\MAIN.OBJ
^M:\GIT\CONTEND\LAB5A\BACKGROUND.CPP|M:\GIT\CONTEND\LAB5A\MAIN.CPP|M:\GIT\CONTEND\LAB5A\SPRITE.CPP
M:\GIT\CONTEND\LAB5A\DEBUG\BACKGROUND.OBJ
M:\GIT\CONTEND\LAB5A\DEBUG\MAIN.OBJ
M:\GIT\CONTEND\LAB5A\DEBUG\SPRITE.OBJ
^M:\GIT\CONTEND\LAB5A\GAME.CPP|M:\GIT\CONTEND\LAB5A\MAIN.CPP|M:\GIT\CONTEND\LAB5A\PLAYER.CPP
M:\GIT\CONTEND\LAB5A\DEBUG\GAME.OBJ
M:\GIT\CONTEND\LAB5A\DEBUG\MAIN.OBJ
M:\GIT\CONTEND\LAB5A\DEBUG\PLAYER.OBJ
^M:\GIT\CONTEND\LAB5A\GAME.CPP
M:\GIT\CONTEND\LAB5A\DEBUG\VC100.PDB
^M:\GIT\CONTEND\LAB5A\PLAYER.CPP
M:\GIT\CONTEND\LAB5A\DEBUG\VC100.PDB
M:\GIT\CONTEND\LAB5A\DEBUG\PLAYER.OBJ
^M:\GIT\CONTEND\LAB5A\ENGINEER.CPP|M:\GIT\CONTEND\LAB5A\FIGHTER.CPP|M:\GIT\CONTEND\LAB5A\PLAYER.CPP
M:\GIT\CONTEND\LAB5A\DEBUG\ENGINEER.OBJ
M:\GIT\CONTEND\LAB5A\DEBUG\FIGHTER.OBJ
M:\GIT\CONTEND\LAB5A\DEBUG\PLAYER.OBJ
^M:\GIT\CONTEND\LAB5A\ENGINEER.CPP
M:\GIT\CONTEND\LAB5A\DEBUG\VC100.PDB
^M:\GIT\CONTEND\LAB5A\FIGHTER.CPP
M:\GIT\CONTEND\LAB5A\DEBUG\VC100.PDB
M:\GIT\CONTEND\LAB5A\DEBUG\FIGHTER.OBJ
^M:\GIT\CONTEND\LAB5A\BASE.CPP|M:\GIT\CONTEND\LAB5A\ENGINEER.CPP|M:\GIT\CONTEND\LAB5A\FIGHTER.CPP|M:\GIT\CONTEND\LAB5A\GRUNT.CPP|M:\GIT\CONTEND\LAB5A\MINER.CPP|M:\GIT\CONTEND\LAB5A\PLAYER.CPP|M:\GIT\CONTEND\LAB5A\STEALER.CPP|M:\GIT\CONTEND\LAB5A\WIZARD.CPP
M:\GIT\CONTEND\LAB5A\DEBUG\BASE.OBJ
M:\GIT\CONTEND\LAB5A\DEBUG\GRUNT.OBJ
M:\GIT\CONTEND\LAB5A\DEBUG\MINER.OBJ
M:\GIT\CONTEND\LAB5A\DEBUG\STEALER.OBJ
M:\GIT\CONTEND\LAB5A\DEBUG\WIZARD.OBJ
M:\GIT\CONTEND\LAB5A\DEBUG\ENGINEER.OBJ
M:\GIT\CONTEND\LAB5A\DEBUG\FIGHTER.OBJ
^M:\GIT\CONTEND\LAB5A\BASE.CPP
M:\GIT\CONTEND\LAB5A\DEBUG\VC100.PDB
^M:\GIT\CONTEND\LAB5A\GRUNT.CPP
M:\GIT\CONTEND\LAB5A\DEBUG\VC100.PDB
^M:\GIT\CONTEND\LAB5A\MINER.CPP
M:\GIT\CONTEND\LAB5A\DEBUG\VC100.PDB
^M:\GIT\CONTEND\LAB5A\STEALER.CPP
M:\GIT\CONTEND\LAB5A\DEBUG\VC100.PDB
^M:\GIT\CONTEND\LAB5A\WIZARD.CPP
M:\GIT\CONTEND\LAB5A\DEBUG\VC100.PDB
^M:\GIT\CONTEND\LAB5A\CSPRITE.CPP|M:\GIT\CONTEND\LAB5A\ENGINEER.CPP|M:\GIT\CONTEND\LAB5A\FIGHTER.CPP|M:\GIT\CONTEND\LAB5A\GAME.CPP|M:\GIT\CONTEND\LAB5A\GRUNT.CPP|M:\GIT\CONTEND\LAB5A\MAIN.CPP|M:\GIT\CONTEND\LAB5A\MINER.CPP|M:\GIT\CONTEND\LAB5A\PLAYER.CPP|M:\GIT\CONTEND\LAB5A\SEEKER.CPP|M:\GIT\CONTEND\LAB5A\STEALER.CPP|M:\GIT\CONTEND\LAB5A\WIZARD.CPP
M:\GIT\CONTEND\LAB5A\DEBUG\CSPRITE.OBJ
M:\GIT\CONTEND\LAB5A\DEBUG\PLAYER.OBJ
M:\GIT\CONTEND\LAB5A\DEBUG\ENGINEER.OBJ
M:\GIT\CONTEND\LAB5A\DEBUG\FIGHTER.OBJ
M:\GIT\CONTEND\LAB5A\DEBUG\GRUNT.OBJ
M:\GIT\CONTEND\LAB5A\DEBUG\MINER.OBJ
M:\GIT\CONTEND\LAB5A\DEBUG\SEEKER.OBJ
M:\GIT\CONTEND\LAB5A\DEBUG\STEALER.OBJ
M:\GIT\CONTEND\LAB5A\DEBUG\WIZARD.OBJ
M:\GIT\CONTEND\LAB5A\DEBUG\GAME.OBJ
M:\GIT\CONTEND\LAB5A\DEBUG\MAIN.OBJ
^M:\GIT\CONTEND\LAB5A\GAME.CPP|M:\GIT\CONTEND\LAB5A\MAIN.CPP
M:\GIT\CONTEND\LAB5A\DEBUG\GAME.OBJ
M:\GIT\CONTEND\LAB5A\DEBUG\MAIN.OBJ
^M:\GIT\CONTEND\LAB5A\GAME.CPP|M:\GIT\CONTEND\LAB5A\HUD.CPP|M:\GIT\CONTEND\LAB5A\MAIN.CPP
M:\GIT\CONTEND\LAB5A\DEBUG\HUD.OBJ
M:\GIT\CONTEND\LAB5A\DEBUG\MAIN.OBJ
M:\GIT\CONTEND\LAB5A\DEBUG\GAME.OBJ
^M:\GIT\CONTEND\LAB5A\HUD.CPP
M:\GIT\CONTEND\LAB5A\DEBUG\VC100.PDB
^M:\GIT\CONTEND\LAB5A\GAME.CPP|M:\GIT\CONTEND\LAB5A\PLAYER.CPP
M:\GIT\CONTEND\LAB5A\DEBUG\GAME.OBJ
M:\GIT\CONTEND\LAB5A\DEBUG\PLAYER.OBJ
^M:\GIT\CONTEND\LAB5A\BACKGROUND.CPP|M:\GIT\CONTEND\LAB5A\CSPRITE.CPP|M:\GIT\CONTEND\LAB5A\ENGINEER.CPP|M:\GIT\CONTEND\LAB5A\FIGHTER.CPP|M:\GIT\CONTEND\LAB5A\GAME.CPP|M:\GIT\CONTEND\LAB5A\GRUNT.CPP|M:\GIT\CONTEND\LAB5A\MAIN.CPP|M:\GIT\CONTEND\LAB5A\MINER.CPP|M:\GIT\CONTEND\LAB5A\PLAYER.CPP|M:\GIT\CONTEND\LAB5A\SEEKER.CPP|M:\GIT\CONTEND\LAB5A\SPRITE.CPP|M:\GIT\CONTEND\LAB5A\STEALER.CPP|M:\GIT\CONTEND\LAB5A\WIZARD.CPP
M:\GIT\CONTEND\LAB5A\DEBUG\BACKGROUND.OBJ
M:\GIT\CONTEND\LAB5A\DEBUG\CSPRITE.OBJ
M:\GIT\CONTEND\LAB5A\DEBUG\ENGINEER.OBJ
M:\GIT\CONTEND\LAB5A\DEBUG\FIGHTER.OBJ
M:\GIT\CONTEND\LAB5A\DEBUG\GAME.OBJ
M:\GIT\CONTEND\LAB5A\DEBUG\GRUNT.OBJ
M:\GIT\CONTEND\LAB5A\DEBUG\MAIN.OBJ
M:\GIT\CONTEND\LAB5A\DEBUG\MINER.OBJ
M:\GIT\CONTEND\LAB5A\DEBUG\PLAYER.OBJ
M:\GIT\CONTEND\LAB5A\DEBUG\SEEKER.OBJ
M:\GIT\CONTEND\LAB5A\DEBUG\SPRITE.OBJ
M:\GIT\CONTEND\LAB5A\DEBUG\STEALER.OBJ
M:\GIT\CONTEND\LAB5A\DEBUG\WIZARD.OBJ
^M:\GIT\CONTEND\LAB5A\CSPRITE.CPP|M:\GIT\CONTEND\LAB5A\GAME.CPP
M:\GIT\CONTEND\LAB5A\DEBUG\CSPRITE.OBJ
M:\GIT\CONTEND\LAB5A\DEBUG\GAME.OBJ
^M:\GIT\CONTEND\LAB5A\BASE.CPP|M:\GIT\CONTEND\LAB5A\GAME.CPP|M:\GIT\CONTEND\LAB5A\MAIN.CPP|M:\GIT\CONTEND\LAB5A\PLAYER.CPP
M:\GIT\CONTEND\LAB5A\DEBUG\BASE.OBJ
M:\GIT\CONTEND\LAB5A\DEBUG\GAME.OBJ
M:\GIT\CONTEND\LAB5A\DEBUG\MAIN.OBJ
M:\GIT\CONTEND\LAB5A\DEBUG\PLAYER.OBJ
^D:\ABERTAY\LABWORK\GRAPHICS PROGRAMMING\COURSEWORK 1\LAB5A\BACKGROUND.CPP|D:\ABERTAY\LABWORK\GRAPHICS PROGRAMMING\COURSEWORK 1\LAB5A\BASE.CPP|D:\ABERTAY\LABWORK\GRAPHICS PROGRAMMING\COURSEWORK 1\LAB5A\BULLET.CPP|D:\ABERTAY\LABWORK\GRAPHICS PROGRAMMING\COURSEWORK 1\LAB5A\CSPRITE.CPP|D:\ABERTAY\LABWORK\GRAPHICS PROGRAMMING\COURSEWORK 1\LAB5A\ENGINEER.CPP|D:\ABERTAY\LABWORK\GRAPHICS PROGRAMMING\COURSEWORK 1\LAB5A\FIGHTER.CPP|D:\ABERTAY\LABWORK\GRAPHICS PROGRAMMING\COURSEWORK 1\LAB5A\GAME.CPP|D:\ABERTAY\LABWORK\GRAPHICS PROGRAMMING\COURSEWORK 1\LAB5A\GRUNT.CPP|D:\ABERTAY\LABWORK\GRAPHICS PROGRAMMING\COURSEWORK 1\LAB5A\HUD.CPP|D:\ABERTAY\LABWORK\GRAPHICS PROGRAMMING\COURSEWORK 1\LAB5A\INPUT.CPP|D:\ABERTAY\LABWORK\GRAPHICS PROGRAMMING\COURSEWORK 1\LAB5A\MAIN.CPP|D:\ABERTAY\LABWORK\GRAPHICS PROGRAMMING\COURSEWORK 1\LAB5A\MINER.CPP|D:\ABERTAY\LABWORK\GRAPHICS PROGRAMMING\COURSEWORK 1\LAB5A\PLAYER.CPP|D:\ABERTAY\LABWORK\GRAPHICS PROGRAMMING\COURSEWORK 1\LAB5A\SEEKER.CPP|D:\ABERTAY\LABWORK\GRAPHICS PROGRAMMING\COURSEWORK 1\LAB5A\SPRITE.CPP|D:\ABERTAY\LABWORK\GRAPHICS PROGRAMMING\COURSEWORK 1\LAB5A\STEALER.CPP|D:\ABERTAY\LABWORK\GRAPHICS PROGRAMMING\COURSEWORK 1\LAB5A\TILE.CPP|D:\ABERTAY\LABWORK\GRAPHICS PROGRAMMING\COURSEWORK 1\LAB5A\WIZARD.CPP
D:\ABERTAY\LABWORK\GRAPHICS PROGRAMMING\COURSEWORK 1\LAB5A\DEBUG\BACKGROUND.OBJ
D:\ABERTAY\LABWORK\GRAPHICS PROGRAMMING\COURSEWORK 1\LAB5A\DEBUG\BASE.OBJ
D:\ABERTAY\LABWORK\GRAPHICS PROGRAMMING\COURSEWORK 1\LAB5A\DEBUG\BULLET.OBJ
D:\ABERTAY\LABWORK\GRAPHICS PROGRAMMING\COURSEWORK 1\LAB5A\DEBUG\CSPRITE.OBJ
D:\ABERTAY\LABWORK\GRAPHICS PROGRAMMING\COURSEWORK 1\LAB5A\DEBUG\ENGINEER.OBJ
D:\ABERTAY\LABWORK\GRAPHICS PROGRAMMING\COURSEWORK 1\LAB5A\DEBUG\FIGHTER.OBJ
D:\ABERTAY\LABWORK\GRAPHICS PROGRAMMING\COURSEWORK 1\LAB5A\DEBUG\GAME.OBJ
D:\ABERTAY\LABWORK\GRAPHICS PROGRAMMING\COURSEWORK 1\LAB5A\DEBUG\GRUNT.OBJ
D:\ABERTAY\LABWORK\GRAPHICS PROGRAMMING\COURSEWORK 1\LAB5A\DEBUG\HUD.OBJ
D:\ABERTAY\LABWORK\GRAPHICS PROGRAMMING\COURSEWORK 1\LAB5A\DEBUG\INPUT.OBJ
D:\ABERTAY\LABWORK\GRAPHICS PROGRAMMING\COURSEWORK 1\LAB5A\DEBUG\MAIN.OBJ
D:\ABERTAY\LABWORK\GRAPHICS PROGRAMMING\COURSEWORK 1\LAB5A\DEBUG\MINER.OBJ
D:\ABERTAY\LABWORK\GRAPHICS PROGRAMMING\COURSEWORK 1\LAB5A\DEBUG\PLAYER.OBJ
D:\ABERTAY\LABWORK\GRAPHICS PROGRAMMING\COURSEWORK 1\LAB5A\DEBUG\SEEKER.OBJ
D:\ABERTAY\LABWORK\GRAPHICS PROGRAMMING\COURSEWORK 1\LAB5A\DEBUG\SPRITE.OBJ
D:\ABERTAY\LABWORK\GRAPHICS PROGRAMMING\COURSEWORK 1\LAB5A\DEBUG\STEALER.OBJ
D:\ABERTAY\LABWORK\GRAPHICS PROGRAMMING\COURSEWORK 1\LAB5A\DEBUG\TILE.OBJ
D:\ABERTAY\LABWORK\GRAPHICS PROGRAMMING\COURSEWORK 1\LAB5A\DEBUG\WIZARD.OBJ
^D:\ABERTAY\LABWORK\GRAPHICS PROGRAMMING\COURSEWORK 1\LAB5A\BASE.CPP
D:\ABERTAY\LABWORK\GRAPHICS PROGRAMMING\COURSEWORK 1\LAB5A\DEBUG\VC100.PDB
D:\ABERTAY\LABWORK\GRAPHICS PROGRAMMING\COURSEWORK 1\LAB5A\DEBUG\BASE.OBJ
^D:\ABERTAY\LABWORK\GRAPHICS PROGRAMMING\COURSEWORK 1\LAB5A\BULLET.CPP
D:\ABERTAY\LABWORK\GRAPHICS PROGRAMMING\COURSEWORK 1\LAB5A\DEBUG\VC100.PDB
D:\ABERTAY\LABWORK\GRAPHICS PROGRAMMING\COURSEWORK 1\LAB5A\DEBUG\BULLET.OBJ
^D:\ABERTAY\LABWORK\GRAPHICS PROGRAMMING\COURSEWORK 1\LAB5A\ENGINEER.CPP
D:\ABERTAY\LABWORK\GRAPHICS PROGRAMMING\COURSEWORK 1\LAB5A\DEBUG\VC100.PDB
^D:\ABERTAY\LABWORK\GRAPHICS PROGRAMMING\COURSEWORK 1\LAB5A\FIGHTER.CPP
D:\ABERTAY\LABWORK\GRAPHICS PROGRAMMING\COURSEWORK 1\LAB5A\DEBUG\VC100.PDB
^D:\ABERTAY\LABWORK\GRAPHICS PROGRAMMING\COURSEWORK 1\LAB5A\GAME.CPP
D:\ABERTAY\LABWORK\GRAPHICS PROGRAMMING\COURSEWORK 1\LAB5A\DEBUG\VC100.PDB
^D:\ABERTAY\LABWORK\GRAPHICS PROGRAMMING\COURSEWORK 1\LAB5A\GRUNT.CPP
D:\ABERTAY\LABWORK\GRAPHICS PROGRAMMING\COURSEWORK 1\LAB5A\DEBUG\VC100.PDB
^D:\ABERTAY\LABWORK\GRAPHICS PROGRAMMING\COURSEWORK 1\LAB5A\HUD.CPP
D:\ABERTAY\LABWORK\GRAPHICS PROGRAMMING\COURSEWORK 1\LAB5A\DEBUG\VC100.PDB
^D:\ABERTAY\LABWORK\GRAPHICS PROGRAMMING\COURSEWORK 1\LAB5A\MINER.CPP
D:\ABERTAY\LABWORK\GRAPHICS PROGRAMMING\COURSEWORK 1\LAB5A\DEBUG\VC100.PDB
^D:\ABERTAY\LABWORK\GRAPHICS PROGRAMMING\COURSEWORK 1\LAB5A\PLAYER.CPP
D:\ABERTAY\LABWORK\GRAPHICS PROGRAMMING\COURSEWORK 1\LAB5A\DEBUG\VC100.PDB
^D:\ABERTAY\LABWORK\GRAPHICS PROGRAMMING\COURSEWORK 1\LAB5A\STEALER.CPP
D:\ABERTAY\LABWORK\GRAPHICS PROGRAMMING\COURSEWORK 1\LAB5A\DEBUG\VC100.PDB
^D:\ABERTAY\LABWORK\GRAPHICS PROGRAMMING\COURSEWORK 1\LAB5A\WIZARD.CPP
D:\ABERTAY\LABWORK\GRAPHICS PROGRAMMING\COURSEWORK 1\LAB5A\DEBUG\VC100.PDB
^D:\ABERTAY\LABWORK\GRAPHICS PROGRAMMING\COURSEWORK 1\LAB5A\BASE.CPP|D:\ABERTAY\LABWORK\GRAPHICS PROGRAMMING\COURSEWORK 1\LAB5A\GAME.CPP|D:\ABERTAY\LABWORK\GRAPHICS PROGRAMMING\COURSEWORK 1\LAB5A\MAIN.CPP|D:\ABERTAY\LABWORK\GRAPHICS PROGRAMMING\COURSEWORK 1\LAB5A\PLAYER.CPP
D:\ABERTAY\LABWORK\GRAPHICS PROGRAMMING\COURSEWORK 1\LAB5A\DEBUG\GAME.OBJ
D:\ABERTAY\LABWORK\GRAPHICS PROGRAMMING\COURSEWORK 1\LAB5A\DEBUG\MAIN.OBJ
D:\ABERTAY\LABWORK\GRAPHICS PROGRAMMING\COURSEWORK 1\LAB5A\DEBUG\BASE.OBJ
D:\ABERTAY\LABWORK\GRAPHICS PROGRAMMING\COURSEWORK 1\LAB5A\DEBUG\PLAYER.OBJ
^D:\ABERTAY\LABWORK\GRAPHICS PROGRAMMING\COURSEWORK 1\LAB5A\GAME.CPP|D:\ABERTAY\LABWORK\GRAPHICS PROGRAMMING\COURSEWORK 1\LAB5A\MAIN.CPP
D:\ABERTAY\LABWORK\GRAPHICS PROGRAMMING\COURSEWORK 1\LAB5A\DEBUG\GAME.OBJ
D:\ABERTAY\LABWORK\GRAPHICS PROGRAMMING\COURSEWORK 1\LAB5A\DEBUG\MAIN.OBJ
^D:\ABERTAY\LABWORK\GRAPHICS PROGRAMMING\COURSEWORK 1\LAB5A\BASE.CPP|D:\ABERTAY\LABWORK\GRAPHICS PROGRAMMING\COURSEWORK 1\LAB5A\PLAYER.CPP
D:\ABERTAY\LABWORK\GRAPHICS PROGRAMMING\COURSEWORK 1\LAB5A\DEBUG\PLAYER.OBJ
D:\ABERTAY\LABWORK\GRAPHICS PROGRAMMING\COURSEWORK 1\LAB5A\DEBUG\BASE.OBJ
^D:\ABERTAY\LABWORK\GRAPHICS PROGRAMMING\COURSEWORK 1\LAB5A\BASE.CPP|D:\ABERTAY\LABWORK\GRAPHICS PROGRAMMING\COURSEWORK 1\LAB5A\BULLET.CPP|D:\ABERTAY\LABWORK\GRAPHICS PROGRAMMING\COURSEWORK 1\LAB5A\CSPRITE.CPP|D:\ABERTAY\LABWORK\GRAPHICS PROGRAMMING\COURSEWORK 1\LAB5A\ENGINEER.CPP|D:\ABERTAY\LABWORK\GRAPHICS PROGRAMMING\COURSEWORK 1\LAB5A\FIGHTER.CPP|D:\ABERTAY\LABWORK\GRAPHICS PROGRAMMING\COURSEWORK 1\LAB5A\GAME.CPP|D:\ABERTAY\LABWORK\GRAPHICS PROGRAMMING\COURSEWORK 1\LAB5A\GRUNT.CPP|D:\ABERTAY\LABWORK\GRAPHICS PROGRAMMING\COURSEWORK 1\LAB5A\MAIN.CPP|D:\ABERTAY\LABWORK\GRAPHICS PROGRAMMING\COURSEWORK 1\LAB5A\MINER.CPP|D:\ABERTAY\LABWORK\GRAPHICS PROGRAMMING\COURSEWORK 1\LAB5A\PLAYER.CPP|D:\ABERTAY\LABWORK\GRAPHICS PROGRAMMING\COURSEWORK 1\LAB5A\SEEKER.CPP|D:\ABERTAY\LABWORK\GRAPHICS PROGRAMMING\COURSEWORK 1\LAB5A\SPRITE.CPP|D:\ABERTAY\LABWORK\GRAPHICS PROGRAMMING\COURSEWORK 1\LAB5A\STEALER.CPP|D:\ABERTAY\LABWORK\GRAPHICS PROGRAMMING\COURSEWORK 1\LAB5A\WIZARD.CPP
D:\ABERTAY\LABWORK\GRAPHICS PROGRAMMING\COURSEWORK 1\LAB5A\DEBUG\GAME.OBJ
D:\ABERTAY\LABWORK\GRAPHICS PROGRAMMING\COURSEWORK 1\LAB5A\DEBUG\BASE.OBJ
D:\ABERTAY\LABWORK\GRAPHICS PROGRAMMING\COURSEWORK 1\LAB5A\DEBUG\BULLET.OBJ
D:\ABERTAY\LABWORK\GRAPHICS PROGRAMMING\COURSEWORK 1\LAB5A\DEBUG\CSPRITE.OBJ
D:\ABERTAY\LABWORK\GRAPHICS PROGRAMMING\COURSEWORK 1\LAB5A\DEBUG\ENGINEER.OBJ
D:\ABERTAY\LABWORK\GRAPHICS PROGRAMMING\COURSEWORK 1\LAB5A\DEBUG\FIGHTER.OBJ
D:\ABERTAY\LABWORK\GRAPHICS PROGRAMMING\COURSEWORK 1\LAB5A\DEBUG\GRUNT.OBJ
D:\ABERTAY\LABWORK\GRAPHICS PROGRAMMING\COURSEWORK 1\LAB5A\DEBUG\MAIN.OBJ
D:\ABERTAY\LABWORK\GRAPHICS PROGRAMMING\COURSEWORK 1\LAB5A\DEBUG\MINER.OBJ
D:\ABERTAY\LABWORK\GRAPHICS PROGRAMMING\COURSEWORK 1\LAB5A\DEBUG\SEEKER.OBJ
D:\ABERTAY\LABWORK\GRAPHICS PROGRAMMING\COURSEWORK 1\LAB5A\DEBUG\STEALER.OBJ
D:\ABERTAY\LABWORK\GRAPHICS PROGRAMMING\COURSEWORK 1\LAB5A\DEBUG\WIZARD.OBJ
D:\ABERTAY\LABWORK\GRAPHICS PROGRAMMING\COURSEWORK 1\LAB5A\DEBUG\SPRITE.OBJ
D:\ABERTAY\LABWORK\GRAPHICS PROGRAMMING\COURSEWORK 1\LAB5A\DEBUG\PLAYER.OBJ
^D:\ABERTAY\LABWORK\GRAPHICS PROGRAMMING\COURSEWORK 1\LAB5A\PLAYER.CPP|D:\ABERTAY\LABWORK\GRAPHICS PROGRAMMING\COURSEWORK 1\LAB5A\SPRITE.CPP
D:\ABERTAY\LABWORK\GRAPHICS PROGRAMMING\COURSEWORK 1\LAB5A\DEBUG\PLAYER.OBJ
D:\ABERTAY\LABWORK\GRAPHICS PROGRAMMING\COURSEWORK 1\LAB5A\DEBUG\SPRITE.OBJ
^D:\ABERTAY\LABWORK\GRAPHICS PROGRAMMING\COURSEWORK 1\LAB5A\GAME.CPP|D:\ABERTAY\LABWORK\GRAPHICS PROGRAMMING\COURSEWORK 1\LAB5A\SPRITE.CPP
D:\ABERTAY\LABWORK\GRAPHICS PROGRAMMING\COURSEWORK 1\LAB5A\DEBUG\GAME.OBJ
D:\ABERTAY\LABWORK\GRAPHICS PROGRAMMING\COURSEWORK 1\LAB5A\DEBUG\SPRITE.OBJ
^D:\ABERTAY\LABWORK\GRAPHICS PROGRAMMING\COURSEWORK 1\LAB5A\BASE.CPP|D:\ABERTAY\LABWORK\GRAPHICS PROGRAMMING\COURSEWORK 1\LAB5A\CSPRITE.CPP|D:\ABERTAY\LABWORK\GRAPHICS PROGRAMMING\COURSEWORK 1\LAB5A\ENGINEER.CPP|D:\ABERTAY\LABWORK\GRAPHICS PROGRAMMING\COURSEWORK 1\LAB5A\FIGHTER.CPP|D:\ABERTAY\LABWORK\GRAPHICS PROGRAMMING\COURSEWORK 1\LAB5A\GAME.CPP|D:\ABERTAY\LABWORK\GRAPHICS PROGRAMMING\COURSEWORK 1\LAB5A\GRUNT.CPP|D:\ABERTAY\LABWORK\GRAPHICS PROGRAMMING\COURSEWORK 1\LAB5A\MAIN.CPP|D:\ABERTAY\LABWORK\GRAPHICS PROGRAMMING\COURSEWORK 1\LAB5A\MINER.CPP|D:\ABERTAY\LABWORK\GRAPHICS PROGRAMMING\COURSEWORK 1\LAB5A\PLAYER.CPP|D:\ABERTAY\LABWORK\GRAPHICS PROGRAMMING\COURSEWORK 1\LAB5A\SEEKER.CPP|D:\ABERTAY\LABWORK\GRAPHICS PROGRAMMING\COURSEWORK 1\LAB5A\STEALER.CPP|D:\ABERTAY\LABWORK\GRAPHICS PROGRAMMING\COURSEWORK 1\LAB5A\WIZARD.CPP
D:\ABERTAY\LABWORK\GRAPHICS PROGRAMMING\COURSEWORK 1\LAB5A\DEBUG\GAME.OBJ
D:\ABERTAY\LABWORK\GRAPHICS PROGRAMMING\COURSEWORK 1\LAB5A\DEBUG\PLAYER.OBJ
^D:\ABERTAY\LABWORK\GRAPHICS PROGRAMMING\COURSEWORK 1\LAB5A\GAME.CPP|D:\ABERTAY\LABWORK\GRAPHICS PROGRAMMING\COURSEWORK 1\LAB5A\PLAYER.CPP
D:\ABERTAY\LABWORK\GRAPHICS PROGRAMMING\COURSEWORK 1\LAB5A\DEBUG\GAME.OBJ
D:\ABERTAY\LABWORK\GRAPHICS PROGRAMMING\COURSEWORK 1\LAB5A\DEBUG\PLAYER.OBJ
^D:\ABERTAY\LABWORK\GRAPHICS PROGRAMMING\COURSEWORK 1\LAB5A\GAME.CPP|D:\ABERTAY\LABWORK\GRAPHICS PROGRAMMING\COURSEWORK 1\LAB5A\MAIN.CPP|D:\ABERTAY\LABWORK\GRAPHICS PROGRAMMING\COURSEWORK 1\LAB5A\PLAYER.CPP
D:\ABERTAY\LABWORK\GRAPHICS PROGRAMMING\COURSEWORK 1\LAB5A\DEBUG\GAME.OBJ
D:\ABERTAY\LABWORK\GRAPHICS PROGRAMMING\COURSEWORK 1\LAB5A\DEBUG\MAIN.OBJ
D:\ABERTAY\LABWORK\GRAPHICS PROGRAMMING\COURSEWORK 1\LAB5A\DEBUG\PLAYER.OBJ
^D:\ABERTAY\LABWORK\GRAPHICS PROGRAMMING\COURSEWORK 1\LAB5A\GAME.CPP|D:\ABERTAY\LABWORK\GRAPHICS PROGRAMMING\COURSEWORK 1\LAB5A\HUD.CPP|D:\ABERTAY\LABWORK\GRAPHICS PROGRAMMING\COURSEWORK 1\LAB5A\MAIN.CPP
D:\ABERTAY\LABWORK\GRAPHICS PROGRAMMING\COURSEWORK 1\LAB5A\DEBUG\HUD.OBJ
D:\ABERTAY\LABWORK\GRAPHICS PROGRAMMING\COURSEWORK 1\LAB5A\DEBUG\GAME.OBJ
D:\ABERTAY\LABWORK\GRAPHICS PROGRAMMING\COURSEWORK 1\LAB5A\DEBUG\MAIN.OBJ
^D:\ABERTAY\LABWORK\GRAPHICS PROGRAMMING\COURSEWORK 1\LAB5A\GAME.CPP|D:\ABERTAY\LABWORK\GRAPHICS PROGRAMMING\COURSEWORK 1\LAB5A\HUD.CPP|D:\ABERTAY\LABWORK\GRAPHICS PROGRAMMING\COURSEWORK 1\LAB5A\MAIN.CPP|D:\ABERTAY\LABWORK\GRAPHICS PROGRAMMING\COURSEWORK 1\LAB5A\PLAYER.CPP
D:\ABERTAY\LABWORK\GRAPHICS PROGRAMMING\COURSEWORK 1\LAB5A\DEBUG\HUD.OBJ
D:\ABERTAY\LABWORK\GRAPHICS PROGRAMMING\COURSEWORK 1\LAB5A\DEBUG\MAIN.OBJ
^D:\ABERTAY\LABWORK\GRAPHICS PROGRAMMING\COURSEWORK 1\LAB5A\HUD.CPP|D:\ABERTAY\LABWORK\GRAPHICS PROGRAMMING\COURSEWORK 1\LAB5A\PLAYER.CPP
D:\ABERTAY\LABWORK\GRAPHICS PROGRAMMING\COURSEWORK 1\LAB5A\DEBUG\HUD.OBJ
D:\ABERTAY\LABWORK\GRAPHICS PROGRAMMING\COURSEWORK 1\LAB5A\DEBUG\PLAYER.OBJ
^M:\GIT\CONTEND\LAB5A\BACKGROUND.CPP|M:\GIT\CONTEND\LAB5A\BASE.CPP|M:\GIT\CONTEND\LAB5A\BULLET.CPP|M:\GIT\CONTEND\LAB5A\CSPRITE.CPP|M:\GIT\CONTEND\LAB5A\ENGINEER.CPP|M:\GIT\CONTEND\LAB5A\FIGHTER.CPP|M:\GIT\CONTEND\LAB5A\GAME.CPP|M:\GIT\CONTEND\LAB5A\GRUNT.CPP|M:\GIT\CONTEND\LAB5A\HUD.CPP|M:\GIT\CONTEND\LAB5A\INPUT.CPP|M:\GIT\CONTEND\LAB5A\MAIN.CPP|M:\GIT\CONTEND\LAB5A\MINER.CPP|M:\GIT\CONTEND\LAB5A\PLAYER.CPP|M:\GIT\CONTEND\LAB5A\SEEKER.CPP|M:\GIT\CONTEND\LAB5A\SPRITE.CPP|M:\GIT\CONTEND\LAB5A\STEALER.CPP|M:\GIT\CONTEND\LAB5A\TILE.CPP|M:\GIT\CONTEND\LAB5A\WIZARD.CPP
M:\GIT\CONTEND\LAB5A\DEBUG\BACKGROUND.OBJ
M:\GIT\CONTEND\LAB5A\DEBUG\BASE.OBJ
M:\GIT\CONTEND\LAB5A\DEBUG\BULLET.OBJ
M:\GIT\CONTEND\LAB5A\DEBUG\CSPRITE.OBJ
M:\GIT\CONTEND\LAB5A\DEBUG\ENGINEER.OBJ
M:\GIT\CONTEND\LAB5A\DEBUG\FIGHTER.OBJ
M:\GIT\CONTEND\LAB5A\DEBUG\GAME.OBJ
M:\GIT\CONTEND\LAB5A\DEBUG\GRUNT.OBJ
M:\GIT\CONTEND\LAB5A\DEBUG\HUD.OBJ
M:\GIT\CONTEND\LAB5A\DEBUG\INPUT.OBJ
M:\GIT\CONTEND\LAB5A\DEBUG\MAIN.OBJ
M:\GIT\CONTEND\LAB5A\DEBUG\MINER.OBJ
M:\GIT\CONTEND\LAB5A\DEBUG\PLAYER.OBJ
M:\GIT\CONTEND\LAB5A\DEBUG\SEEKER.OBJ
M:\GIT\CONTEND\LAB5A\DEBUG\SPRITE.OBJ
M:\GIT\CONTEND\LAB5A\DEBUG\STEALER.OBJ
M:\GIT\CONTEND\LAB5A\DEBUG\TILE.OBJ
M:\GIT\CONTEND\LAB5A\DEBUG\WIZARD.OBJ
^M:\GIT\CONTEND\LAB5A\BASE.CPP|M:\GIT\CONTEND\LAB5A\CSPRITE.CPP|M:\GIT\CONTEND\LAB5A\ENGINEER.CPP|M:\GIT\CONTEND\LAB5A\FIGHTER.CPP|M:\GIT\CONTEND\LAB5A\FONT.CPP|M:\GIT\CONTEND\LAB5A\GAME.CPP|M:\GIT\CONTEND\LAB5A\GRUNT.CPP|M:\GIT\CONTEND\LAB5A\MAIN.CPP|M:\GIT\CONTEND\LAB5A\MINER.CPP|M:\GIT\CONTEND\LAB5A\PLAYER.CPP|M:\GIT\CONTEND\LAB5A\SEEKER.CPP|M:\GIT\CONTEND\LAB5A\STEALER.CPP|M:\GIT\CONTEND\LAB5A\WIZARD.CPP
M:\GIT\CONTEND\LAB5A\DEBUG\CSPRITE.OBJ
M:\GIT\CONTEND\LAB5A\DEBUG\FONT.OBJ
M:\GIT\CONTEND\LAB5A\DEBUG\PLAYER.OBJ
M:\GIT\CONTEND\LAB5A\DEBUG\BASE.OBJ
M:\GIT\CONTEND\LAB5A\DEBUG\ENGINEER.OBJ
M:\GIT\CONTEND\LAB5A\DEBUG\FIGHTER.OBJ
M:\GIT\CONTEND\LAB5A\DEBUG\GAME.OBJ
M:\GIT\CONTEND\LAB5A\DEBUG\GRUNT.OBJ
M:\GIT\CONTEND\LAB5A\DEBUG\MAIN.OBJ
M:\GIT\CONTEND\LAB5A\DEBUG\MINER.OBJ
M:\GIT\CONTEND\LAB5A\DEBUG\SEEKER.OBJ
M:\GIT\CONTEND\LAB5A\DEBUG\STEALER.OBJ
M:\GIT\CONTEND\LAB5A\DEBUG\WIZARD.OBJ
^M:\GIT\CONTEND\LAB5A\FONT.CPP
M:\GIT\CONTEND\LAB5A\DEBUG\VC100.PDB
M:\GIT\CONTEND\LAB5A\DEBUG\FONT.OBJ
^M:\GIT\CONTEND\LAB5A\FONT.CPP|M:\GIT\CONTEND\LAB5A\GAME.CPP|M:\GIT\CONTEND\LAB5A\MAIN.CPP
M:\GIT\CONTEND\LAB5A\DEBUG\FONT.OBJ
M:\GIT\CONTEND\LAB5A\DEBUG\GAME.OBJ
M:\GIT\CONTEND\LAB5A\DEBUG\MAIN.OBJ
^M:\GIT\CONTEND\LAB5A\FONT.CPP|M:\GIT\CONTEND\LAB5A\GAME.CPP
M:\GIT\CONTEND\LAB5A\DEBUG\FONT.OBJ
M:\GIT\CONTEND\LAB5A\DEBUG\GAME.OBJ
^M:\GIT\CONTEND\LAB5A\BASE.CPP|M:\GIT\CONTEND\LAB5A\CSPRITE.CPP|M:\GIT\CONTEND\LAB5A\ENGINEER.CPP|M:\GIT\CONTEND\LAB5A\FIGHTER.CPP|M:\GIT\CONTEND\LAB5A\GAME.CPP|M:\GIT\CONTEND\LAB5A\GRUNT.CPP|M:\GIT\CONTEND\LAB5A\MAIN.CPP|M:\GIT\CONTEND\LAB5A\MINER.CPP|M:\GIT\CONTEND\LAB5A\PLAYER.CPP|M:\GIT\CONTEND\LAB5A\SEEKER.CPP|M:\GIT\CONTEND\LAB5A\STEALER.CPP|M:\GIT\CONTEND\LAB5A\WIZARD.CPP
M:\GIT\CONTEND\LAB5A\DEBUG\PLAYER.OBJ
M:\GIT\CONTEND\LAB5A\DEBUG\BASE.OBJ
M:\GIT\CONTEND\LAB5A\DEBUG\CSPRITE.OBJ
M:\GIT\CONTEND\LAB5A\DEBUG\ENGINEER.OBJ
M:\GIT\CONTEND\LAB5A\DEBUG\FIGHTER.OBJ
M:\GIT\CONTEND\LAB5A\DEBUG\GAME.OBJ
M:\GIT\CONTEND\LAB5A\DEBUG\GRUNT.OBJ
M:\GIT\CONTEND\LAB5A\DEBUG\MAIN.OBJ
M:\GIT\CONTEND\LAB5A\DEBUG\MINER.OBJ
M:\GIT\CONTEND\LAB5A\DEBUG\SEEKER.OBJ
M:\GIT\CONTEND\LAB5A\DEBUG\STEALER.OBJ
M:\GIT\CONTEND\LAB5A\DEBUG\WIZARD.OBJ
^M:\GIT\CONTEND\LAB5A\GAME.CPP|M:\GIT\CONTEND\LAB5A\HUD.CPP|M:\GIT\CONTEND\LAB5A\MAIN.CPP|M:\GIT\CONTEND\LAB5A\PLAYER.CPP
M:\GIT\CONTEND\LAB5A\DEBUG\GAME.OBJ
M:\GIT\CONTEND\LAB5A\DEBUG\HUD.OBJ
M:\GIT\CONTEND\LAB5A\DEBUG\MAIN.OBJ
M:\GIT\CONTEND\LAB5A\DEBUG\PLAYER.OBJ
^M:\GIT\CONTEND\LAB5A\HUD.CPP|M:\GIT\CONTEND\LAB5A\PLAYER.CPP
M:\GIT\CONTEND\LAB5A\DEBUG\HUD.OBJ
M:\GIT\CONTEND\LAB5A\DEBUG\PLAYER.OBJ
^M:\GIT\CONTEND\LAB5A\BASE.CPP|M:\GIT\CONTEND\LAB5A\CSPRITE.CPP|M:\GIT\CONTEND\LAB5A\ENGINEER.CPP|M:\GIT\CONTEND\LAB5A\FIGHTER.CPP|M:\GIT\CONTEND\LAB5A\GAME.CPP|M:\GIT\CONTEND\LAB5A\GRUNT.CPP|M:\GIT\CONTEND\LAB5A\HUD.CPP|M:\GIT\CONTEND\LAB5A\MAIN.CPP|M:\GIT\CONTEND\LAB5A\MINER.CPP|M:\GIT\CONTEND\LAB5A\PLAYER.CPP|M:\GIT\CONTEND\LAB5A\SEEKER.CPP|M:\GIT\CONTEND\LAB5A\STEALER.CPP|M:\GIT\CONTEND\LAB5A\WIZARD.CPP
M:\GIT\CONTEND\LAB5A\DEBUG\HUD.OBJ
^M:\GIT\CONTEND\LAB5A\HUD.CPP|M:\GIT\CONTEND\LAB5A\SEEKER.CPP
M:\GIT\CONTEND\LAB5A\DEBUG\HUD.OBJ
M:\GIT\CONTEND\LAB5A\DEBUG\SEEKER.OBJ
^M:\GIT\CONTEND\LAB5A\GAME.CPP|M:\GIT\CONTEND\LAB5A\HUD.CPP
M:\GIT\CONTEND\LAB5A\DEBUG\GAME.OBJ
M:\GIT\CONTEND\LAB5A\DEBUG\HUD.OBJ
^M:\GIT\CONTEND\LAB5A\BASE.CPP|M:\GIT\CONTEND\LAB5A\BULLET.CPP|M:\GIT\CONTEND\LAB5A\CSPRITE.CPP|M:\GIT\CONTEND\LAB5A\ENGINEER.CPP|M:\GIT\CONTEND\LAB5A\FIGHTER.CPP|M:\GIT\CONTEND\LAB5A\GAME.CPP|M:\GIT\CONTEND\LAB5A\GRUNT.CPP|M:\GIT\CONTEND\LAB5A\HUD.CPP|M:\GIT\CONTEND\LAB5A\MAIN.CPP|M:\GIT\CONTEND\LAB5A\MINER.CPP|M:\GIT\CONTEND\LAB5A\PLAYER.CPP|M:\GIT\CONTEND\LAB5A\SEEKER.CPP|M:\GIT\CONTEND\LAB5A\SPRITE.CPP|M:\GIT\CONTEND\LAB5A\STEALER.CPP|M:\GIT\CONTEND\LAB5A\WIZARD.CPP
M:\GIT\CONTEND\LAB5A\DEBUG\CSPRITE.OBJ
M:\GIT\CONTEND\LAB5A\DEBUG\SPRITE.OBJ
M:\GIT\CONTEND\LAB5A\DEBUG\BASE.OBJ
M:\GIT\CONTEND\LAB5A\DEBUG\BULLET.OBJ
M:\GIT\CONTEND\LAB5A\DEBUG\ENGINEER.OBJ
M:\GIT\CONTEND\LAB5A\DEBUG\FIGHTER.OBJ
M:\GIT\CONTEND\LAB5A\DEBUG\GAME.OBJ
M:\GIT\CONTEND\LAB5A\DEBUG\GRUNT.OBJ
M:\GIT\CONTEND\LAB5A\DEBUG\HUD.OBJ
M:\GIT\CONTEND\LAB5A\DEBUG\MAIN.OBJ
M:\GIT\CONTEND\LAB5A\DEBUG\MINER.OBJ
M:\GIT\CONTEND\LAB5A\DEBUG\PLAYER.OBJ
M:\GIT\CONTEND\LAB5A\DEBUG\SEEKER.OBJ
M:\GIT\CONTEND\LAB5A\DEBUG\STEALER.OBJ
M:\GIT\CONTEND\LAB5A\DEBUG\WIZARD.OBJ
^D:\ABERTAY\LABWORK\GRAPHICS PROGRAMMING\COURSEWORK 1\LAB5A\BACKGROUND.CPP|D:\ABERTAY\LABWORK\GRAPHICS PROGRAMMING\COURSEWORK 1\LAB5A\BASE.CPP|D:\ABERTAY\LABWORK\GRAPHICS PROGRAMMING\COURSEWORK 1\LAB5A\BULLET.CPP|D:\ABERTAY\LABWORK\GRAPHICS PROGRAMMING\COURSEWORK 1\LAB5A\CSPRITE.CPP|D:\ABERTAY\LABWORK\GRAPHICS PROGRAMMING\COURSEWORK 1\LAB5A\ENGINEER.CPP|D:\ABERTAY\LABWORK\GRAPHICS PROGRAMMING\COURSEWORK 1\LAB5A\FIGHTER.CPP|D:\ABERTAY\LABWORK\GRAPHICS PROGRAMMING\COURSEWORK 1\LAB5A\FONT.CPP|D:\ABERTAY\LABWORK\GRAPHICS PROGRAMMING\COURSEWORK 1\LAB5A\GAME.CPP|D:\ABERTAY\LABWORK\GRAPHICS PROGRAMMING\COURSEWORK 1\LAB5A\GRUNT.CPP|D:\ABERTAY\LABWORK\GRAPHICS PROGRAMMING\COURSEWORK 1\LAB5A\HUD.CPP|D:\ABERTAY\LABWORK\GRAPHICS PROGRAMMING\COURSEWORK 1\LAB5A\INPUT.CPP|D:\ABERTAY\LABWORK\GRAPHICS PROGRAMMING\COURSEWORK 1\LAB5A\MAIN.CPP|D:\ABERTAY\LABWORK\GRAPHICS PROGRAMMING\COURSEWORK 1\LAB5A\MINER.CPP|D:\ABERTAY\LABWORK\GRAPHICS PROGRAMMING\COURSEWORK 1\LAB5A\PLAYER.CPP|D:\ABERTAY\LABWORK\GRAPHICS PROGRAMMING\COURSEWORK 1\LAB5A\SEEKER.CPP|D:\ABERTAY\LABWORK\GRAPHICS PROGRAMMING\COURSEWORK 1\LAB5A\SPRITE.CPP|D:\ABERTAY\LABWORK\GRAPHICS PROGRAMMING\COURSEWORK 1\LAB5A\STEALER.CPP|D:\ABERTAY\LABWORK\GRAPHICS PROGRAMMING\COURSEWORK 1\LAB5A\TILE.CPP|D:\ABERTAY\LABWORK\GRAPHICS PROGRAMMING\COURSEWORK 1\LAB5A\WIZARD.CPP
D:\ABERTAY\LABWORK\GRAPHICS PROGRAMMING\COURSEWORK 1\LAB5A\DEBUG\BACKGROUND.OBJ
D:\ABERTAY\LABWORK\GRAPHICS PROGRAMMING\COURSEWORK 1\LAB5A\DEBUG\BASE.OBJ
D:\ABERTAY\LABWORK\GRAPHICS PROGRAMMING\COURSEWORK 1\LAB5A\DEBUG\BULLET.OBJ
D:\ABERTAY\LABWORK\GRAPHICS PROGRAMMING\COURSEWORK 1\LAB5A\DEBUG\CSPRITE.OBJ
D:\ABERTAY\LABWORK\GRAPHICS PROGRAMMING\COURSEWORK 1\LAB5A\DEBUG\ENGINEER.OBJ
D:\ABERTAY\LABWORK\GRAPHICS PROGRAMMING\COURSEWORK 1\LAB5A\DEBUG\FIGHTER.OBJ
D:\ABERTAY\LABWORK\GRAPHICS PROGRAMMING\COURSEWORK 1\LAB5A\DEBUG\FONT.OBJ
D:\ABERTAY\LABWORK\GRAPHICS PROGRAMMING\COURSEWORK 1\LAB5A\DEBUG\GAME.OBJ
D:\ABERTAY\LABWORK\GRAPHICS PROGRAMMING\COURSEWORK 1\LAB5A\DEBUG\GRUNT.OBJ
D:\ABERTAY\LABWORK\GRAPHICS PROGRAMMING\COURSEWORK 1\LAB5A\DEBUG\HUD.OBJ
D:\ABERTAY\LABWORK\GRAPHICS PROGRAMMING\COURSEWORK 1\LAB5A\DEBUG\INPUT.OBJ
D:\ABERTAY\LABWORK\GRAPHICS PROGRAMMING\COURSEWORK 1\LAB5A\DEBUG\MAIN.OBJ
D:\ABERTAY\LABWORK\GRAPHICS PROGRAMMING\COURSEWORK 1\LAB5A\DEBUG\MINER.OBJ
D:\ABERTAY\LABWORK\GRAPHICS PROGRAMMING\COURSEWORK 1\LAB5A\DEBUG\PLAYER.OBJ
D:\ABERTAY\LABWORK\GRAPHICS PROGRAMMING\COURSEWORK 1\LAB5A\DEBUG\SEEKER.OBJ
D:\ABERTAY\LABWORK\GRAPHICS PROGRAMMING\COURSEWORK 1\LAB5A\DEBUG\SPRITE.OBJ
D:\ABERTAY\LABWORK\GRAPHICS PROGRAMMING\COURSEWORK 1\LAB5A\DEBUG\STEALER.OBJ
D:\ABERTAY\LABWORK\GRAPHICS PROGRAMMING\COURSEWORK 1\LAB5A\DEBUG\TILE.OBJ
D:\ABERTAY\LABWORK\GRAPHICS PROGRAMMING\COURSEWORK 1\LAB5A\DEBUG\WIZARD.OBJ
^D:\ABERTAY\LABWORK\GRAPHICS PROGRAMMING\COURSEWORK 1\LAB5A\FONT.CPP
D:\ABERTAY\LABWORK\GRAPHICS PROGRAMMING\COURSEWORK 1\LAB5A\DEBUG\VC100.PDB
^D:\ABERTAY\LABWORK\GRAPHICS PROGRAMMING\COURSEWORK 1\LAB5A\ENGINEER.CPP|D:\ABERTAY\LABWORK\GRAPHICS PROGRAMMING\COURSEWORK 1\LAB5A\FIGHTER.CPP|D:\ABERTAY\LABWORK\GRAPHICS PROGRAMMING\COURSEWORK 1\LAB5A\GAME.CPP|D:\ABERTAY\LABWORK\GRAPHICS PROGRAMMING\COURSEWORK 1\LAB5A\HUD.CPP|D:\ABERTAY\LABWORK\GRAPHICS PROGRAMMING\COURSEWORK 1\LAB5A\WIZARD.CPP
D:\ABERTAY\LABWORK\GRAPHICS PROGRAMMING\COURSEWORK 1\LAB5A\DEBUG\ENGINEER.OBJ
D:\ABERTAY\LABWORK\GRAPHICS PROGRAMMING\COURSEWORK 1\LAB5A\DEBUG\FIGHTER.OBJ
D:\ABERTAY\LABWORK\GRAPHICS PROGRAMMING\COURSEWORK 1\LAB5A\DEBUG\GAME.OBJ
D:\ABERTAY\LABWORK\GRAPHICS PROGRAMMING\COURSEWORK 1\LAB5A\DEBUG\HUD.OBJ
D:\ABERTAY\LABWORK\GRAPHICS PROGRAMMING\COURSEWORK 1\LAB5A\DEBUG\WIZARD.OBJ
^D:\ABERTAY\LABWORK\GRAPHICS PROGRAMMING\COURSEWORK 1\LAB5A\BASE.CPP|D:\ABERTAY\LABWORK\GRAPHICS PROGRAMMING\COURSEWORK 1\LAB5A\BULLET.CPP|D:\ABERTAY\LABWORK\GRAPHICS PROGRAMMING\COURSEWORK 1\LAB5A\CSPRITE.CPP|D:\ABERTAY\LABWORK\GRAPHICS PROGRAMMING\COURSEWORK 1\LAB5A\ENGINEER.CPP|D:\ABERTAY\LABWORK\GRAPHICS PROGRAMMING\COURSEWORK 1\LAB5A\FIGHTER.CPP|D:\ABERTAY\LABWORK\GRAPHICS PROGRAMMING\COURSEWORK 1\LAB5A\GAME.CPP|D:\ABERTAY\LABWORK\GRAPHICS PROGRAMMING\COURSEWORK 1\LAB5A\GRUNT.CPP|D:\ABERTAY\LABWORK\GRAPHICS PROGRAMMING\COURSEWORK 1\LAB5A\HUD.CPP|D:\ABERTAY\LABWORK\GRAPHICS PROGRAMMING\COURSEWORK 1\LAB5A\MAIN.CPP|D:\ABERTAY\LABWORK\GRAPHICS PROGRAMMING\COURSEWORK 1\LAB5A\MINER.CPP|D:\ABERTAY\LABWORK\GRAPHICS PROGRAMMING\COURSEWORK 1\LAB5A\PLAYER.CPP|D:\ABERTAY\LABWORK\GRAPHICS PROGRAMMING\COURSEWORK 1\LAB5A\SEEKER.CPP|D:\ABERTAY\LABWORK\GRAPHICS PROGRAMMING\COURSEWORK 1\LAB5A\SPRITE.CPP|D:\ABERTAY\LABWORK\GRAPHICS PROGRAMMING\COURSEWORK 1\LAB5A\STEALER.CPP|D:\ABERTAY\LABWORK\GRAPHICS PROGRAMMING\COURSEWORK 1\LAB5A\WIZARD.CPP
D:\ABERTAY\LABWORK\GRAPHICS PROGRAMMING\COURSEWORK 1\LAB5A\DEBUG\GAME.OBJ
D:\ABERTAY\LABWORK\GRAPHICS PROGRAMMING\COURSEWORK 1\LAB5A\DEBUG\SPRITE.OBJ
D:\ABERTAY\LABWORK\GRAPHICS PROGRAMMING\COURSEWORK 1\LAB5A\DEBUG\PLAYER.OBJ
D:\ABERTAY\LABWORK\GRAPHICS PROGRAMMING\COURSEWORK 1\LAB5A\DEBUG\MAIN.OBJ
D:\ABERTAY\LABWORK\GRAPHICS PROGRAMMING\COURSEWORK 1\LAB5A\DEBUG\BASE.OBJ
D:\ABERTAY\LABWORK\GRAPHICS PROGRAMMING\COURSEWORK 1\LAB5A\DEBUG\BULLET.OBJ
D:\ABERTAY\LABWORK\GRAPHICS PROGRAMMING\COURSEWORK 1\LAB5A\DEBUG\CSPRITE.OBJ
D:\ABERTAY\LABWORK\GRAPHICS PROGRAMMING\COURSEWORK 1\LAB5A\DEBUG\ENGINEER.OBJ
D:\ABERTAY\LABWORK\GRAPHICS PROGRAMMING\COURSEWORK 1\LAB5A\DEBUG\FIGHTER.OBJ
D:\ABERTAY\LABWORK\GRAPHICS PROGRAMMING\COURSEWORK 1\LAB5A\DEBUG\GRUNT.OBJ
D:\ABERTAY\LABWORK\GRAPHICS PROGRAMMING\COURSEWORK 1\LAB5A\DEBUG\HUD.OBJ
D:\ABERTAY\LABWORK\GRAPHICS PROGRAMMING\COURSEWORK 1\LAB5A\DEBUG\MINER.OBJ
D:\ABERTAY\LABWORK\GRAPHICS PROGRAMMING\COURSEWORK 1\LAB5A\DEBUG\SEEKER.OBJ
D:\ABERTAY\LABWORK\GRAPHICS PROGRAMMING\COURSEWORK 1\LAB5A\DEBUG\STEALER.OBJ
D:\ABERTAY\LABWORK\GRAPHICS PROGRAMMING\COURSEWORK 1\LAB5A\DEBUG\WIZARD.OBJ
^D:\ABERTAY\LABWORK\GRAPHICS PROGRAMMING\COURSEWORK 1\LAB5A\BASE.CPP|D:\ABERTAY\LABWORK\GRAPHICS PROGRAMMING\COURSEWORK 1\LAB5A\CSPRITE.CPP|D:\ABERTAY\LABWORK\GRAPHICS PROGRAMMING\COURSEWORK 1\LAB5A\ENGINEER.CPP|D:\ABERTAY\LABWORK\GRAPHICS PROGRAMMING\COURSEWORK 1\LAB5A\FIGHTER.CPP|D:\ABERTAY\LABWORK\GRAPHICS PROGRAMMING\COURSEWORK 1\LAB5A\GAME.CPP|D:\ABERTAY\LABWORK\GRAPHICS PROGRAMMING\COURSEWORK 1\LAB5A\GRUNT.CPP|D:\ABERTAY\LABWORK\GRAPHICS PROGRAMMING\COURSEWORK 1\LAB5A\HUD.CPP|D:\ABERTAY\LABWORK\GRAPHICS PROGRAMMING\COURSEWORK 1\LAB5A\MAIN.CPP|D:\ABERTAY\LABWORK\GRAPHICS PROGRAMMING\COURSEWORK 1\LAB5A\MINER.CPP|D:\ABERTAY\LABWORK\GRAPHICS PROGRAMMING\COURSEWORK 1\LAB5A\PLAYER.CPP|D:\ABERTAY\LABWORK\GRAPHICS PROGRAMMING\COURSEWORK 1\LAB5A\SEEKER.CPP|D:\ABERTAY\LABWORK\GRAPHICS PROGRAMMING\COURSEWORK 1\LAB5A\STEALER.CPP|D:\ABERTAY\LABWORK\GRAPHICS PROGRAMMING\COURSEWORK 1\LAB5A\WIZARD.CPP
D:\ABERTAY\LABWORK\GRAPHICS PROGRAMMING\COURSEWORK 1\LAB5A\DEBUG\CSPRITE.OBJ
D:\ABERTAY\LABWORK\GRAPHICS PROGRAMMING\COURSEWORK 1\LAB5A\DEBUG\BASE.OBJ
D:\ABERTAY\LABWORK\GRAPHICS PROGRAMMING\COURSEWORK 1\LAB5A\DEBUG\GAME.OBJ
D:\ABERTAY\LABWORK\GRAPHICS PROGRAMMING\COURSEWORK 1\LAB5A\DEBUG\HUD.OBJ
D:\ABERTAY\LABWORK\GRAPHICS PROGRAMMING\COURSEWORK 1\LAB5A\DEBUG\MAIN.OBJ
D:\ABERTAY\LABWORK\GRAPHICS PROGRAMMING\COURSEWORK 1\LAB5A\DEBUG\PLAYER.OBJ
^D:\ABERTAY\LABWORK\GRAPHICS PROGRAMMING\COURSEWORK 1\LAB5A\BASE.CPP|D:\ABERTAY\LABWORK\GRAPHICS PROGRAMMING\COURSEWORK 1\LAB5A\ENGINEER.CPP|D:\ABERTAY\LABWORK\GRAPHICS PROGRAMMING\COURSEWORK 1\LAB5A\FIGHTER.CPP|D:\ABERTAY\LABWORK\GRAPHICS PROGRAMMING\COURSEWORK 1\LAB5A\GAME.CPP|D:\ABERTAY\LABWORK\GRAPHICS PROGRAMMING\COURSEWORK 1\LAB5A\GRUNT.CPP|D:\ABERTAY\LABWORK\GRAPHICS PROGRAMMING\COURSEWORK 1\LAB5A\MAIN.CPP|D:\ABERTAY\LABWORK\GRAPHICS PROGRAMMING\COURSEWORK 1\LAB5A\MINER.CPP|D:\ABERTAY\LABWORK\GRAPHICS PROGRAMMING\COURSEWORK 1\LAB5A\PLAYER.CPP|D:\ABERTAY\LABWORK\GRAPHICS PROGRAMMING\COURSEWORK 1\LAB5A\STEALER.CPP|D:\ABERTAY\LABWORK\GRAPHICS PROGRAMMING\COURSEWORK 1\LAB5A\WIZARD.CPP
D:\ABERTAY\LABWORK\GRAPHICS PROGRAMMING\COURSEWORK 1\LAB5A\DEBUG\ENGINEER.OBJ
D:\ABERTAY\LABWORK\GRAPHICS PROGRAMMING\COURSEWORK 1\LAB5A\DEBUG\PLAYER.OBJ
D:\ABERTAY\LABWORK\GRAPHICS PROGRAMMING\COURSEWORK 1\LAB5A\DEBUG\FIGHTER.OBJ
D:\ABERTAY\LABWORK\GRAPHICS PROGRAMMING\COURSEWORK 1\LAB5A\DEBUG\GRUNT.OBJ
D:\ABERTAY\LABWORK\GRAPHICS PROGRAMMING\COURSEWORK 1\LAB5A\DEBUG\MINER.OBJ
D:\ABERTAY\LABWORK\GRAPHICS PROGRAMMING\COURSEWORK 1\LAB5A\DEBUG\STEALER.OBJ
D:\ABERTAY\LABWORK\GRAPHICS PROGRAMMING\COURSEWORK 1\LAB5A\DEBUG\WIZARD.OBJ
^D:\ABERTAY\LABWORK\GRAPHICS PROGRAMMING\COURSEWORK 1\LAB5A\ENGINEER.CPP|D:\ABERTAY\LABWORK\GRAPHICS PROGRAMMING\COURSEWORK 1\LAB5A\FIGHTER.CPP|D:\ABERTAY\LABWORK\GRAPHICS PROGRAMMING\COURSEWORK 1\LAB5A\GAME.CPP|D:\ABERTAY\LABWORK\GRAPHICS PROGRAMMING\COURSEWORK 1\LAB5A\GRUNT.CPP|D:\ABERTAY\LABWORK\GRAPHICS PROGRAMMING\COURSEWORK 1\LAB5A\MAIN.CPP|D:\ABERTAY\LABWORK\GRAPHICS PROGRAMMING\COURSEWORK 1\LAB5A\MINER.CPP|D:\ABERTAY\LABWORK\GRAPHICS PROGRAMMING\COURSEWORK 1\LAB5A\PLAYER.CPP|D:\ABERTAY\LABWORK\GRAPHICS PROGRAMMING\COURSEWORK 1\LAB5A\SEEKER.CPP|D:\ABERTAY\LABWORK\GRAPHICS PROGRAMMING\COURSEWORK 1\LAB5A\STEALER.CPP|D:\ABERTAY\LABWORK\GRAPHICS PROGRAMMING\COURSEWORK 1\LAB5A\WIZARD.CPP
D:\ABERTAY\LABWORK\GRAPHICS PROGRAMMING\COURSEWORK 1\LAB5A\DEBUG\ENGINEER.OBJ
D:\ABERTAY\LABWORK\GRAPHICS PROGRAMMING\COURSEWORK 1\LAB5A\DEBUG\PLAYER.OBJ
D:\ABERTAY\LABWORK\GRAPHICS PROGRAMMING\COURSEWORK 1\LAB5A\DEBUG\FIGHTER.OBJ
D:\ABERTAY\LABWORK\GRAPHICS PROGRAMMING\COURSEWORK 1\LAB5A\DEBUG\GRUNT.OBJ
D:\ABERTAY\LABWORK\GRAPHICS PROGRAMMING\COURSEWORK 1\LAB5A\DEBUG\MINER.OBJ
D:\ABERTAY\LABWORK\GRAPHICS PROGRAMMING\COURSEWORK 1\LAB5A\DEBUG\STEALER.OBJ
D:\ABERTAY\LABWORK\GRAPHICS PROGRAMMING\COURSEWORK 1\LAB5A\DEBUG\WIZARD.OBJ
^D:\ABERTAY\LABWORK\GRAPHICS PROGRAMMING\COURSEWORK 1\LAB5A\ENGINEER.CPP|D:\ABERTAY\LABWORK\GRAPHICS PROGRAMMING\COURSEWORK 1\LAB5A\FIGHTER.CPP|D:\ABERTAY\LABWORK\GRAPHICS PROGRAMMING\COURSEWORK 1\LAB5A\GAME.CPP|D:\ABERTAY\LABWORK\GRAPHICS PROGRAMMING\COURSEWORK 1\LAB5A\GRUNT.CPP|D:\ABERTAY\LABWORK\GRAPHICS PROGRAMMING\COURSEWORK 1\LAB5A\MAIN.CPP|D:\ABERTAY\LABWORK\GRAPHICS PROGRAMMING\COURSEWORK 1\LAB5A\MINER.CPP|D:\ABERTAY\LABWORK\GRAPHICS PROGRAMMING\COURSEWORK 1\LAB5A\PLAYER.CPP|D:\ABERTAY\LABWORK\GRAPHICS PROGRAMMING\COURSEWORK 1\LAB5A\STEALER.CPP|D:\ABERTAY\LABWORK\GRAPHICS PROGRAMMING\COURSEWORK 1\LAB5A\WIZARD.CPP
D:\ABERTAY\LABWORK\GRAPHICS PROGRAMMING\COURSEWORK 1\LAB5A\DEBUG\ENGINEER.OBJ
D:\ABERTAY\LABWORK\GRAPHICS PROGRAMMING\COURSEWORK 1\LAB5A\DEBUG\GAME.OBJ
D:\ABERTAY\LABWORK\GRAPHICS PROGRAMMING\COURSEWORK 1\LAB5A\DEBUG\MAIN.OBJ
D:\ABERTAY\LABWORK\GRAPHICS PROGRAMMING\COURSEWORK 1\LAB5A\DEBUG\PLAYER.OBJ
D:\ABERTAY\LABWORK\GRAPHICS PROGRAMMING\COURSEWORK 1\LAB5A\DEBUG\FIGHTER.OBJ
D:\ABERTAY\LABWORK\GRAPHICS PROGRAMMING\COURSEWORK 1\LAB5A\DEBUG\GRUNT.OBJ
D:\ABERTAY\LABWORK\GRAPHICS PROGRAMMING\COURSEWORK 1\LAB5A\DEBUG\MINER.OBJ
D:\ABERTAY\LABWORK\GRAPHICS PROGRAMMING\COURSEWORK 1\LAB5A\DEBUG\STEALER.OBJ
D:\ABERTAY\LABWORK\GRAPHICS PROGRAMMING\COURSEWORK 1\LAB5A\DEBUG\WIZARD.OBJ
^D:\ABERTAY\LABWORK\GRAPHICS PROGRAMMING\COURSEWORK 1\LAB5A\FIGHTER.CPP|D:\ABERTAY\LABWORK\GRAPHICS PROGRAMMING\COURSEWORK 1\LAB5A\GAME.CPP|D:\ABERTAY\LABWORK\GRAPHICS PROGRAMMING\COURSEWORK 1\LAB5A\GRUNT.CPP|D:\ABERTAY\LABWORK\GRAPHICS PROGRAMMING\COURSEWORK 1\LAB5A\MAIN.CPP|D:\ABERTAY\LABWORK\GRAPHICS PROGRAMMING\COURSEWORK 1\LAB5A\MINER.CPP|D:\ABERTAY\LABWORK\GRAPHICS PROGRAMMING\COURSEWORK 1\LAB5A\PLAYER.CPP|D:\ABERTAY\LABWORK\GRAPHICS PROGRAMMING\COURSEWORK 1\LAB5A\STEALER.CPP|D:\ABERTAY\LABWORK\GRAPHICS PROGRAMMING\COURSEWORK 1\LAB5A\WIZARD.CPP
D:\ABERTAY\LABWORK\GRAPHICS PROGRAMMING\COURSEWORK 1\LAB5A\DEBUG\FIGHTER.OBJ
D:\ABERTAY\LABWORK\GRAPHICS PROGRAMMING\COURSEWORK 1\LAB5A\DEBUG\GAME.OBJ
D:\ABERTAY\LABWORK\GRAPHICS PROGRAMMING\COURSEWORK 1\LAB5A\DEBUG\MAIN.OBJ
D:\ABERTAY\LABWORK\GRAPHICS PROGRAMMING\COURSEWORK 1\LAB5A\DEBUG\PLAYER.OBJ
D:\ABERTAY\LABWORK\GRAPHICS PROGRAMMING\COURSEWORK 1\LAB5A\DEBUG\GRUNT.OBJ
D:\ABERTAY\LABWORK\GRAPHICS PROGRAMMING\COURSEWORK 1\LAB5A\DEBUG\MINER.OBJ
D:\ABERTAY\LABWORK\GRAPHICS PROGRAMMING\COURSEWORK 1\LAB5A\DEBUG\STEALER.OBJ
D:\ABERTAY\LABWORK\GRAPHICS PROGRAMMING\COURSEWORK 1\LAB5A\DEBUG\WIZARD.OBJ
^D:\ABERTAY\LABWORK\GRAPHICS PROGRAMMING\COURSEWORK 1\LAB5A\ENGINEER.CPP|D:\ABERTAY\LABWORK\GRAPHICS PROGRAMMING\COURSEWORK 1\LAB5A\GAME.CPP|D:\ABERTAY\LABWORK\GRAPHICS PROGRAMMING\COURSEWORK 1\LAB5A\MAIN.CPP|D:\ABERTAY\LABWORK\GRAPHICS PROGRAMMING\COURSEWORK 1\LAB5A\PLAYER.CPP|D:\ABERTAY\LABWORK\GRAPHICS PROGRAMMING\COURSEWORK 1\LAB5A\SEEKER.CPP
D:\ABERTAY\LABWORK\GRAPHICS PROGRAMMING\COURSEWORK 1\LAB5A\DEBUG\SEEKER.OBJ
D:\ABERTAY\LABWORK\GRAPHICS PROGRAMMING\COURSEWORK 1\LAB5A\DEBUG\GAME.OBJ
D:\ABERTAY\LABWORK\GRAPHICS PROGRAMMING\COURSEWORK 1\LAB5A\DEBUG\MAIN.OBJ
D:\ABERTAY\LABWORK\GRAPHICS PROGRAMMING\COURSEWORK 1\LAB5A\DEBUG\PLAYER.OBJ
D:\ABERTAY\LABWORK\GRAPHICS PROGRAMMING\COURSEWORK 1\LAB5A\DEBUG\ENGINEER.OBJ
^D:\ABERTAY\LABWORK\GRAPHICS PROGRAMMING\COURSEWORK 1\LAB5A\FIGHTER.CPP|D:\ABERTAY\LABWORK\GRAPHICS PROGRAMMING\COURSEWORK 1\LAB5A\GRUNT.CPP|D:\ABERTAY\LABWORK\GRAPHICS PROGRAMMING\COURSEWORK 1\LAB5A\MINER.CPP|D:\ABERTAY\LABWORK\GRAPHICS PROGRAMMING\COURSEWORK 1\LAB5A\STEALER.CPP|D:\ABERTAY\LABWORK\GRAPHICS PROGRAMMING\COURSEWORK 1\LAB5A\WIZARD.CPP
D:\ABERTAY\LABWORK\GRAPHICS PROGRAMMING\COURSEWORK 1\LAB5A\DEBUG\FIGHTER.OBJ
D:\ABERTAY\LABWORK\GRAPHICS PROGRAMMING\COURSEWORK 1\LAB5A\DEBUG\GRUNT.OBJ
D:\ABERTAY\LABWORK\GRAPHICS PROGRAMMING\COURSEWORK 1\LAB5A\DEBUG\MINER.OBJ
D:\ABERTAY\LABWORK\GRAPHICS PROGRAMMING\COURSEWORK 1\LAB5A\DEBUG\STEALER.OBJ
D:\ABERTAY\LABWORK\GRAPHICS PROGRAMMING\COURSEWORK 1\LAB5A\DEBUG\WIZARD.OBJ
^D:\ABERTAY\LABWORK\GRAPHICS PROGRAMMING\COURSEWORK 1\LAB5A\PLAYER.CPP|D:\ABERTAY\LABWORK\GRAPHICS PROGRAMMING\COURSEWORK 1\LAB5A\SEEKER.CPP
D:\ABERTAY\LABWORK\GRAPHICS PROGRAMMING\COURSEWORK 1\LAB5A\DEBUG\PLAYER.OBJ
D:\ABERTAY\LABWORK\GRAPHICS PROGRAMMING\COURSEWORK 1\LAB5A\DEBUG\SEEKER.OBJ
^M:\GIT\CONTEND\LAB5A\BACKGROUND.CPP|M:\GIT\CONTEND\LAB5A\BASE.CPP|M:\GIT\CONTEND\LAB5A\BULLET.CPP|M:\GIT\CONTEND\LAB5A\CSPRITE.CPP|M:\GIT\CONTEND\LAB5A\ENGINEER.CPP|M:\GIT\CONTEND\LAB5A\FIGHTER.CPP|M:\GIT\CONTEND\LAB5A\FONT.CPP|M:\GIT\CONTEND\LAB5A\GAME.CPP|M:\GIT\CONTEND\LAB5A\GRUNT.CPP|M:\GIT\CONTEND\LAB5A\HUD.CPP|M:\GIT\CONTEND\LAB5A\INPUT.CPP|M:\GIT\CONTEND\LAB5A\MAIN.CPP|M:\GIT\CONTEND\LAB5A\MINER.CPP|M:\GIT\CONTEND\LAB5A\PLAYER.CPP|M:\GIT\CONTEND\LAB5A\SEEKER.CPP|M:\GIT\CONTEND\LAB5A\SPRITE.CPP|M:\GIT\CONTEND\LAB5A\STEALER.CPP|M:\GIT\CONTEND\LAB5A\TILE.CPP|M:\GIT\CONTEND\LAB5A\WIZARD.CPP
M:\GIT\CONTEND\LAB5A\DEBUG\BACKGROUND.OBJ
M:\GIT\CONTEND\LAB5A\DEBUG\BASE.OBJ
M:\GIT\CONTEND\LAB5A\DEBUG\BULLET.OBJ
M:\GIT\CONTEND\LAB5A\DEBUG\CSPRITE.OBJ
M:\GIT\CONTEND\LAB5A\DEBUG\ENGINEER.OBJ
M:\GIT\CONTEND\LAB5A\DEBUG\FIGHTER.OBJ
M:\GIT\CONTEND\LAB5A\DEBUG\FONT.OBJ
M:\GIT\CONTEND\LAB5A\DEBUG\GAME.OBJ
M:\GIT\CONTEND\LAB5A\DEBUG\GRUNT.OBJ
M:\GIT\CONTEND\LAB5A\DEBUG\HUD.OBJ
M:\GIT\CONTEND\LAB5A\DEBUG\INPUT.OBJ
M:\GIT\CONTEND\LAB5A\DEBUG\MAIN.OBJ
M:\GIT\CONTEND\LAB5A\DEBUG\MINER.OBJ
M:\GIT\CONTEND\LAB5A\DEBUG\PLAYER.OBJ
M:\GIT\CONTEND\LAB5A\DEBUG\SEEKER.OBJ
M:\GIT\CONTEND\LAB5A\DEBUG\SPRITE.OBJ
M:\GIT\CONTEND\LAB5A\DEBUG\STEALER.OBJ
M:\GIT\CONTEND\LAB5A\DEBUG\TILE.OBJ
M:\GIT\CONTEND\LAB5A\DEBUG\WIZARD.OBJ
^D:\ABERTAY\LABWORK\GRAPHICS PROGRAMMING\COURSEWORK 1\LAB5A\CSPRITE.CPP|D:\ABERTAY\LABWORK\GRAPHICS PROGRAMMING\COURSEWORK 1\LAB5A\SEEKER.CPP
D:\ABERTAY\LABWORK\GRAPHICS PROGRAMMING\COURSEWORK 1\LAB5A\DEBUG\CSPRITE.OBJ
D:\ABERTAY\LABWORK\GRAPHICS PROGRAMMING\COURSEWORK 1\LAB5A\DEBUG\SEEKER.OBJ
^D:\ABERTAY\LABWORK\GRAPHICS PROGRAMMING\COURSEWORK 1\LAB5A\ENGINEER.CPP|D:\ABERTAY\LABWORK\GRAPHICS PROGRAMMING\COURSEWORK 1\LAB5A\PLAYER.CPP
D:\ABERTAY\LABWORK\GRAPHICS PROGRAMMING\COURSEWORK 1\LAB5A\DEBUG\ENGINEER.OBJ
D:\ABERTAY\LABWORK\GRAPHICS PROGRAMMING\COURSEWORK 1\LAB5A\DEBUG\PLAYER.OBJ
^D:\ABERTAY\LABWORK\GRAPHICS PROGRAMMING\COURSEWORK 1\LAB5A\ENGINEER.CPP|D:\ABERTAY\LABWORK\GRAPHICS PROGRAMMING\COURSEWORK 1\LAB5A\GAME.CPP|D:\ABERTAY\LABWORK\GRAPHICS PROGRAMMING\COURSEWORK 1\LAB5A\MAIN.CPP|D:\ABERTAY\LABWORK\GRAPHICS PROGRAMMING\COURSEWORK 1\LAB5A\PLAYER.CPP
D:\ABERTAY\LABWORK\GRAPHICS PROGRAMMING\COURSEWORK 1\LAB5A\DEBUG\ENGINEER.OBJ
D:\ABERTAY\LABWORK\GRAPHICS PROGRAMMING\COURSEWORK 1\LAB5A\DEBUG\GAME.OBJ
D:\ABERTAY\LABWORK\GRAPHICS PROGRAMMING\COURSEWORK 1\LAB5A\DEBUG\MAIN.OBJ
D:\ABERTAY\LABWORK\GRAPHICS PROGRAMMING\COURSEWORK 1\LAB5A\DEBUG\PLAYER.OBJ
^D:\ABERTAY\LABWORK\GRAPHICS PROGRAMMING\COURSEWORK 1\LAB5A\GAME.CPP|D:\ABERTAY\LABWORK\GRAPHICS PROGRAMMING\COURSEWORK 1\LAB5A\MAIN.CPP|D:\ABERTAY\LABWORK\GRAPHICS PROGRAMMING\COURSEWORK 1\LAB5A\PLAYER.CPP|D:\ABERTAY\LABWORK\GRAPHICS PROGRAMMING\COURSEWORK 1\LAB5A\SEEKER.CPP
D:\ABERTAY\LABWORK\GRAPHICS PROGRAMMING\COURSEWORK 1\LAB5A\DEBUG\GAME.OBJ
D:\ABERTAY\LABWORK\GRAPHICS PROGRAMMING\COURSEWORK 1\LAB5A\DEBUG\MAIN.OBJ
D:\ABERTAY\LABWORK\GRAPHICS PROGRAMMING\COURSEWORK 1\LAB5A\DEBUG\PLAYER.OBJ
D:\ABERTAY\LABWORK\GRAPHICS PROGRAMMING\COURSEWORK 1\LAB5A\DEBUG\SEEKER.OBJ
^D:\ABERTAY\LABWORK\GRAPHICS PROGRAMMING\COURSEWORK 1\LAB5A\GAME.CPP|D:\ABERTAY\LABWORK\GRAPHICS PROGRAMMING\COURSEWORK 1\LAB5A\MINER.CPP|D:\ABERTAY\LABWORK\GRAPHICS PROGRAMMING\COURSEWORK 1\LAB5A\PLAYER.CPP
D:\ABERTAY\LABWORK\GRAPHICS PROGRAMMING\COURSEWORK 1\LAB5A\DEBUG\GAME.OBJ
D:\ABERTAY\LABWORK\GRAPHICS PROGRAMMING\COURSEWORK 1\LAB5A\DEBUG\MINER.OBJ
D:\ABERTAY\LABWORK\GRAPHICS PROGRAMMING\COURSEWORK 1\LAB5A\DEBUG\PLAYER.OBJ
^D:\ABERTAY\LABWORK\GRAPHICS PROGRAMMING\COURSEWORK 1\LAB5A\GAME.CPP|D:\ABERTAY\LABWORK\GRAPHICS PROGRAMMING\COURSEWORK 1\LAB5A\GRUNT.CPP
D:\ABERTAY\LABWORK\GRAPHICS PROGRAMMING\COURSEWORK 1\LAB5A\DEBUG\GAME.OBJ
D:\ABERTAY\LABWORK\GRAPHICS PROGRAMMING\COURSEWORK 1\LAB5A\DEBUG\GRUNT.OBJ
^D:\ABERTAY\LABWORK\GRAPHICS PROGRAMMING\COURSEWORK 1\LAB5A\BASE.CPP|D:\ABERTAY\LABWORK\GRAPHICS PROGRAMMING\COURSEWORK 1\LAB5A\BULLET.CPP|D:\ABERTAY\LABWORK\GRAPHICS PROGRAMMING\COURSEWORK 1\LAB5A\CSPRITE.CPP|D:\ABERTAY\LABWORK\GRAPHICS PROGRAMMING\COURSEWORK 1\LAB5A\ENGINEER.CPP|D:\ABERTAY\LABWORK\GRAPHICS PROGRAMMING\COURSEWORK 1\LAB5A\FIGHTER.CPP|D:\ABERTAY\LABWORK\GRAPHICS PROGRAMMING\COURSEWORK 1\LAB5A\GAME.CPP|D:\ABERTAY\LABWORK\GRAPHICS PROGRAMMING\COURSEWORK 1\LAB5A\GRUNT.CPP|D:\ABERTAY\LABWORK\GRAPHICS PROGRAMMING\COURSEWORK 1\LAB5A\HUD.CPP|D:\ABERTAY\LABWORK\GRAPHICS PROGRAMMING\COURSEWORK 1\LAB5A\MAIN.CPP|D:\ABERTAY\LABWORK\GRAPHICS PROGRAMMING\COURSEWORK 1\LAB5A\MINER.CPP|D:\ABERTAY\LABWORK\GRAPHICS PROGRAMMING\COURSEWORK 1\LAB5A\PLAYER.CPP|D:\ABERTAY\LABWORK\GRAPHICS PROGRAMMING\COURSEWORK 1\LAB5A\SEEKER.CPP|D:\ABERTAY\LABWORK\GRAPHICS PROGRAMMING\COURSEWORK 1\LAB5A\STEALER.CPP|D:\ABERTAY\LABWORK\GRAPHICS PROGRAMMING\COURSEWORK 1\LAB5A\WIZARD.CPP
D:\ABERTAY\LABWORK\GRAPHICS PROGRAMMING\COURSEWORK 1\LAB5A\DEBUG\BULLET.OBJ
D:\ABERTAY\LABWORK\GRAPHICS PROGRAMMING\COURSEWORK 1\LAB5A\DEBUG\CSPRITE.OBJ
D:\ABERTAY\LABWORK\GRAPHICS PROGRAMMING\COURSEWORK 1\LAB5A\DEBUG\GRUNT.OBJ
D:\ABERTAY\LABWORK\GRAPHICS PROGRAMMING\COURSEWORK 1\LAB5A\DEBUG\HUD.OBJ
D:\ABERTAY\LABWORK\GRAPHICS PROGRAMMING\COURSEWORK 1\LAB5A\DEBUG\MINER.OBJ
D:\ABERTAY\LABWORK\GRAPHICS PROGRAMMING\COURSEWORK 1\LAB5A\DEBUG\SEEKER.OBJ
D:\ABERTAY\LABWORK\GRAPHICS PROGRAMMING\COURSEWORK 1\LAB5A\DEBUG\STEALER.OBJ
D:\ABERTAY\LABWORK\GRAPHICS PROGRAMMING\COURSEWORK 1\LAB5A\DEBUG\WIZARD.OBJ
D:\ABERTAY\LABWORK\GRAPHICS PROGRAMMING\COURSEWORK 1\LAB5A\DEBUG\BASE.OBJ
D:\ABERTAY\LABWORK\GRAPHICS PROGRAMMING\COURSEWORK 1\LAB5A\DEBUG\ENGINEER.OBJ
D:\ABERTAY\LABWORK\GRAPHICS PROGRAMMING\COURSEWORK 1\LAB5A\DEBUG\GAME.OBJ
D:\ABERTAY\LABWORK\GRAPHICS PROGRAMMING\COURSEWORK 1\LAB5A\DEBUG\MAIN.OBJ
D:\ABERTAY\LABWORK\GRAPHICS PROGRAMMING\COURSEWORK 1\LAB5A\DEBUG\PLAYER.OBJ
D:\ABERTAY\LABWORK\GRAPHICS PROGRAMMING\COURSEWORK 1\LAB5A\DEBUG\FIGHTER.OBJ
^D:\ABERTAY\LABWORK\GRAPHICS PROGRAMMING\COURSEWORK 1\LAB5A\ENGINEER.CPP|D:\ABERTAY\LABWORK\GRAPHICS PROGRAMMING\COURSEWORK 1\LAB5A\FIGHTER.CPP|D:\ABERTAY\LABWORK\GRAPHICS PROGRAMMING\COURSEWORK 1\LAB5A\GAME.CPP|D:\ABERTAY\LABWORK\GRAPHICS PROGRAMMING\COURSEWORK 1\LAB5A\GRUNT.CPP|D:\ABERTAY\LABWORK\GRAPHICS PROGRAMMING\COURSEWORK 1\LAB5A\MAIN.CPP|D:\ABERTAY\LABWORK\GRAPHICS PROGRAMMING\COURSEWORK 1\LAB5A\PLAYER.CPP
D:\ABERTAY\LABWORK\GRAPHICS PROGRAMMING\COURSEWORK 1\LAB5A\DEBUG\ENGINEER.OBJ
D:\ABERTAY\LABWORK\GRAPHICS PROGRAMMING\COURSEWORK 1\LAB5A\DEBUG\FIGHTER.OBJ
D:\ABERTAY\LABWORK\GRAPHICS PROGRAMMING\COURSEWORK 1\LAB5A\DEBUG\GRUNT.OBJ
^D:\ABERTAY\LABWORK\GRAPHICS PROGRAMMING\COURSEWORK 1\LAB5A\BASE.CPP|D:\ABERTAY\LABWORK\GRAPHICS PROGRAMMING\COURSEWORK 1\LAB5A\BULLET.CPP|D:\ABERTAY\LABWORK\GRAPHICS PROGRAMMING\COURSEWORK 1\LAB5A\CSPRITE.CPP|D:\ABERTAY\LABWORK\GRAPHICS PROGRAMMING\COURSEWORK 1\LAB5A\ENGINEER.CPP|D:\ABERTAY\LABWORK\GRAPHICS PROGRAMMING\COURSEWORK 1\LAB5A\FIGHTER.CPP|D:\ABERTAY\LABWORK\GRAPHICS PROGRAMMING\COURSEWORK 1\LAB5A\GAME.CPP|D:\ABERTAY\LABWORK\GRAPHICS PROGRAMMING\COURSEWORK 1\LAB5A\GRUNT.CPP|D:\ABERTAY\LABWORK\GRAPHICS PROGRAMMING\COURSEWORK 1\LAB5A\HUD.CPP|D:\ABERTAY\LABWORK\GRAPHICS PROGRAMMING\COURSEWORK 1\LAB5A\INPUT.CPP|D:\ABERTAY\LABWORK\GRAPHICS PROGRAMMING\COURSEWORK 1\LAB5A\MAIN.CPP|D:\ABERTAY\LABWORK\GRAPHICS PROGRAMMING\COURSEWORK 1\LAB5A\MINER.CPP|D:\ABERTAY\LABWORK\GRAPHICS PROGRAMMING\COURSEWORK 1\LAB5A\PLAYER.CPP|D:\ABERTAY\LABWORK\GRAPHICS PROGRAMMING\COURSEWORK 1\LAB5A\SEEKER.CPP|D:\ABERTAY\LABWORK\GRAPHICS PROGRAMMING\COURSEWORK 1\LAB5A\SPRITE.CPP|D:\ABERTAY\LABWORK\GRAPHICS PROGRAMMING\COURSEWORK 1\LAB5A\STEALER.CPP|D:\ABERTAY\LABWORK\GRAPHICS PROGRAMMING\COURSEWORK 1\LAB5A\WIZARD.CPP
D:\ABERTAY\LABWORK\GRAPHICS PROGRAMMING\COURSEWORK 1\LAB5A\DEBUG\FIGHTER.OBJ
D:\ABERTAY\LABWORK\GRAPHICS PROGRAMMING\COURSEWORK 1\LAB5A\DEBUG\GRUNT.OBJ
D:\ABERTAY\LABWORK\GRAPHICS PROGRAMMING\COURSEWORK 1\LAB5A\DEBUG\BASE.OBJ
D:\ABERTAY\LABWORK\GRAPHICS PROGRAMMING\COURSEWORK 1\LAB5A\DEBUG\CSPRITE.OBJ
D:\ABERTAY\LABWORK\GRAPHICS PROGRAMMING\COURSEWORK 1\LAB5A\DEBUG\ENGINEER.OBJ
D:\ABERTAY\LABWORK\GRAPHICS PROGRAMMING\COURSEWORK 1\LAB5A\DEBUG\GAME.OBJ
D:\ABERTAY\LABWORK\GRAPHICS PROGRAMMING\COURSEWORK 1\LAB5A\DEBUG\HUD.OBJ
D:\ABERTAY\LABWORK\GRAPHICS PROGRAMMING\COURSEWORK 1\LAB5A\DEBUG\INPUT.OBJ
D:\ABERTAY\LABWORK\GRAPHICS PROGRAMMING\COURSEWORK 1\LAB5A\DEBUG\MAIN.OBJ
D:\ABERTAY\LABWORK\GRAPHICS PROGRAMMING\COURSEWORK 1\LAB5A\DEBUG\MINER.OBJ
D:\ABERTAY\LABWORK\GRAPHICS PROGRAMMING\COURSEWORK 1\LAB5A\DEBUG\PLAYER.OBJ
D:\ABERTAY\LABWORK\GRAPHICS PROGRAMMING\COURSEWORK 1\LAB5A\DEBUG\SEEKER.OBJ
D:\ABERTAY\LABWORK\GRAPHICS PROGRAMMING\COURSEWORK 1\LAB5A\DEBUG\SPRITE.OBJ
D:\ABERTAY\LABWORK\GRAPHICS PROGRAMMING\COURSEWORK 1\LAB5A\DEBUG\STEALER.OBJ
D:\ABERTAY\LABWORK\GRAPHICS PROGRAMMING\COURSEWORK 1\LAB5A\DEBUG\WIZARD.OBJ
^D:\ABERTAY\LABWORK\GRAPHICS PROGRAMMING\COURSEWORK 1\LAB5A\BULLET.CPP|D:\ABERTAY\LABWORK\GRAPHICS PROGRAMMING\COURSEWORK 1\LAB5A\FIGHTER.CPP|D:\ABERTAY\LABWORK\GRAPHICS PROGRAMMING\COURSEWORK 1\LAB5A\GAME.CPP|D:\ABERTAY\LABWORK\GRAPHICS PROGRAMMING\COURSEWORK 1\LAB5A\MAIN.CPP|D:\ABERTAY\LABWORK\GRAPHICS PROGRAMMING\COURSEWORK 1\LAB5A\PLAYER.CPP|D:\ABERTAY\LABWORK\GRAPHICS PROGRAMMING\COURSEWORK 1\LAB5A\SEEKER.CPP
D:\ABERTAY\LABWORK\GRAPHICS PROGRAMMING\COURSEWORK 1\LAB5A\DEBUG\BULLET.OBJ
^D:\ABERTAY\LABWORK\GRAPHICS PROGRAMMING\COURSEWORK 1\LAB5A\CSPRITE.CPP|D:\ABERTAY\LABWORK\GRAPHICS PROGRAMMING\COURSEWORK 1\LAB5A\GAME.CPP
D:\ABERTAY\LABWORK\GRAPHICS PROGRAMMING\COURSEWORK 1\LAB5A\DEBUG\CSPRITE.OBJ
D:\ABERTAY\LABWORK\GRAPHICS PROGRAMMING\COURSEWORK 1\LAB5A\DEBUG\GAME.OBJ
^D:\ABERTAY\LABWORK\GRAPHICS PROGRAMMING\COURSEWORK 1\LAB5A\BULLET.CPP|D:\ABERTAY\LABWORK\GRAPHICS PROGRAMMING\COURSEWORK 1\LAB5A\FIGHTER.CPP
D:\ABERTAY\LABWORK\GRAPHICS PROGRAMMING\COURSEWORK 1\LAB5A\DEBUG\BULLET.OBJ
D:\ABERTAY\LABWORK\GRAPHICS PROGRAMMING\COURSEWORK 1\LAB5A\DEBUG\FIGHTER.OBJ
^D:\ABERTAY\LABWORK\GRAPHICS PROGRAMMING\COURSEWORK 1\LAB5A\BULLET.CPP|D:\ABERTAY\LABWORK\GRAPHICS PROGRAMMING\COURSEWORK 1\LAB5A\CSPRITE.CPP|D:\ABERTAY\LABWORK\GRAPHICS PROGRAMMING\COURSEWORK 1\LAB5A\ENGINEER.CPP|D:\ABERTAY\LABWORK\GRAPHICS PROGRAMMING\COURSEWORK 1\LAB5A\FIGHTER.CPP|D:\ABERTAY\LABWORK\GRAPHICS PROGRAMMING\COURSEWORK 1\LAB5A\GAME.CPP|D:\ABERTAY\LABWORK\GRAPHICS PROGRAMMING\COURSEWORK 1\LAB5A\GRUNT.CPP|D:\ABERTAY\LABWORK\GRAPHICS PROGRAMMING\COURSEWORK 1\LAB5A\HUD.CPP|D:\ABERTAY\LABWORK\GRAPHICS PROGRAMMING\COURSEWORK 1\LAB5A\MAIN.CPP|D:\ABERTAY\LABWORK\GRAPHICS PROGRAMMING\COURSEWORK 1\LAB5A\MINER.CPP|D:\ABERTAY\LABWORK\GRAPHICS PROGRAMMING\COURSEWORK 1\LAB5A\PLAYER.CPP|D:\ABERTAY\LABWORK\GRAPHICS PROGRAMMING\COURSEWORK 1\LAB5A\SEEKER.CPP|D:\ABERTAY\LABWORK\GRAPHICS PROGRAMMING\COURSEWORK 1\LAB5A\STEALER.CPP|D:\ABERTAY\LABWORK\GRAPHICS PROGRAMMING\COURSEWORK 1\LAB5A\WIZARD.CPP
D:\ABERTAY\LABWORK\GRAPHICS PROGRAMMING\COURSEWORK 1\LAB5A\DEBUG\BULLET.OBJ
D:\ABERTAY\LABWORK\GRAPHICS PROGRAMMING\COURSEWORK 1\LAB5A\DEBUG\CSPRITE.OBJ
D:\ABERTAY\LABWORK\GRAPHICS PROGRAMMING\COURSEWORK 1\LAB5A\DEBUG\ENGINEER.OBJ
D:\ABERTAY\LABWORK\GRAPHICS PROGRAMMING\COURSEWORK 1\LAB5A\DEBUG\FIGHTER.OBJ
D:\ABERTAY\LABWORK\GRAPHICS PROGRAMMING\COURSEWORK 1\LAB5A\DEBUG\GAME.OBJ
D:\ABERTAY\LABWORK\GRAPHICS PROGRAMMING\COURSEWORK 1\LAB5A\DEBUG\GRUNT.OBJ
D:\ABERTAY\LABWORK\GRAPHICS PROGRAMMING\COURSEWORK 1\LAB5A\DEBUG\HUD.OBJ
D:\ABERTAY\LABWORK\GRAPHICS PROGRAMMING\COURSEWORK 1\LAB5A\DEBUG\MAIN.OBJ
D:\ABERTAY\LABWORK\GRAPHICS PROGRAMMING\COURSEWORK 1\LAB5A\DEBUG\MINER.OBJ
D:\ABERTAY\LABWORK\GRAPHICS PROGRAMMING\COURSEWORK 1\LAB5A\DEBUG\PLAYER.OBJ
D:\ABERTAY\LABWORK\GRAPHICS PROGRAMMING\COURSEWORK 1\LAB5A\DEBUG\SEEKER.OBJ
D:\ABERTAY\LABWORK\GRAPHICS PROGRAMMING\COURSEWORK 1\LAB5A\DEBUG\STEALER.OBJ
D:\ABERTAY\LABWORK\GRAPHICS PROGRAMMING\COURSEWORK 1\LAB5A\DEBUG\WIZARD.OBJ
^D:\ABERTAY\LABWORK\GRAPHICS PROGRAMMING\COURSEWORK 1\LAB5A\FIGHTER.CPP|D:\ABERTAY\LABWORK\GRAPHICS PROGRAMMING\COURSEWORK 1\LAB5A\GAME.CPP|D:\ABERTAY\LABWORK\GRAPHICS PROGRAMMING\COURSEWORK 1\LAB5A\MAIN.CPP|D:\ABERTAY\LABWORK\GRAPHICS PROGRAMMING\COURSEWORK 1\LAB5A\PLAYER.CPP
D:\ABERTAY\LABWORK\GRAPHICS PROGRAMMING\COURSEWORK 1\LAB5A\DEBUG\FIGHTER.OBJ
D:\ABERTAY\LABWORK\GRAPHICS PROGRAMMING\COURSEWORK 1\LAB5A\DEBUG\PLAYER.OBJ
D:\ABERTAY\LABWORK\GRAPHICS PROGRAMMING\COURSEWORK 1\LAB5A\DEBUG\GAME.OBJ
D:\ABERTAY\LABWORK\GRAPHICS PROGRAMMING\COURSEWORK 1\LAB5A\DEBUG\MAIN.OBJ
^M:\GIT\CONTEND\LAB5A\BULLET.CPP|M:\GIT\CONTEND\LAB5A\CSPRITE.CPP|M:\GIT\CONTEND\LAB5A\ENGINEER.CPP|M:\GIT\CONTEND\LAB5A\FIGHTER.CPP|M:\GIT\CONTEND\LAB5A\GAME.CPP|M:\GIT\CONTEND\LAB5A\GRUNT.CPP|M:\GIT\CONTEND\LAB5A\HUD.CPP|M:\GIT\CONTEND\LAB5A\MAIN.CPP|M:\GIT\CONTEND\LAB5A\MINER.CPP|M:\GIT\CONTEND\LAB5A\PLAYER.CPP|M:\GIT\CONTEND\LAB5A\SEEKER.CPP|M:\GIT\CONTEND\LAB5A\STEALER.CPP|M:\GIT\CONTEND\LAB5A\WIZARD.CPP
M:\GIT\CONTEND\LAB5A\DEBUG\BULLET.OBJ
M:\GIT\CONTEND\LAB5A\DEBUG\FIGHTER.OBJ
^M:\GIT\CONTEND\LAB5A\BASE.CPP|M:\GIT\CONTEND\LAB5A\PLAYER.CPP
M:\GIT\CONTEND\LAB5A\DEBUG\BASE.OBJ
M:\GIT\CONTEND\LAB5A\DEBUG\PLAYER.OBJ
^D:\ABERTAY\LABWORK\GRAPHICS PROGRAMMING\COURSEWORK 1\LAB5A\GAME.CPP|D:\ABERTAY\LABWORK\GRAPHICS PROGRAMMING\COURSEWORK 1\LAB5A\MAIN.CPP|D:\ABERTAY\LABWORK\GRAPHICS PROGRAMMING\COURSEWORK 1\LAB5A\PLAYER.CPP|D:\ABERTAY\LABWORK\GRAPHICS PROGRAMMING\COURSEWORK 1\LAB5A\WIZARD.CPP
D:\ABERTAY\LABWORK\GRAPHICS PROGRAMMING\COURSEWORK 1\LAB5A\DEBUG\GAME.OBJ
D:\ABERTAY\LABWORK\GRAPHICS PROGRAMMING\COURSEWORK 1\LAB5A\DEBUG\PLAYER.OBJ
D:\ABERTAY\LABWORK\GRAPHICS PROGRAMMING\COURSEWORK 1\LAB5A\DEBUG\WIZARD.OBJ
^D:\ABERTAY\LABWORK\GRAPHICS PROGRAMMING\COURSEWORK 1\LAB5A\HUD.CPP|D:\ABERTAY\LABWORK\GRAPHICS PROGRAMMING\COURSEWORK 1\LAB5A\SEEKER.CPP
D:\ABERTAY\LABWORK\GRAPHICS PROGRAMMING\COURSEWORK 1\LAB5A\DEBUG\HUD.OBJ
D:\ABERTAY\LABWORK\GRAPHICS PROGRAMMING\COURSEWORK 1\LAB5A\DEBUG\SEEKER.OBJ
^D:\ABERTAY\LABWORK\GRAPHICS PROGRAMMING\COURSEWORK 1\LAB5A\FIGHTER.CPP|D:\ABERTAY\LABWORK\GRAPHICS PROGRAMMING\COURSEWORK 1\LAB5A\GAME.CPP|D:\ABERTAY\LABWORK\GRAPHICS PROGRAMMING\COURSEWORK 1\LAB5A\SEEKER.CPP
D:\ABERTAY\LABWORK\GRAPHICS PROGRAMMING\COURSEWORK 1\LAB5A\DEBUG\FIGHTER.OBJ
D:\ABERTAY\LABWORK\GRAPHICS PROGRAMMING\COURSEWORK 1\LAB5A\DEBUG\GAME.OBJ
D:\ABERTAY\LABWORK\GRAPHICS PROGRAMMING\COURSEWORK 1\LAB5A\DEBUG\SEEKER.OBJ
^D:\ABERTAY\LABWORK\GRAPHICS PROGRAMMING\COURSEWORK 1\LAB5A\GAME.CPP|D:\ABERTAY\LABWORK\GRAPHICS PROGRAMMING\COURSEWORK 1\LAB5A\MAIN.CPP|D:\ABERTAY\LABWORK\GRAPHICS PROGRAMMING\COURSEWORK 1\LAB5A\PLAYER.CPP|D:\ABERTAY\LABWORK\GRAPHICS PROGRAMMING\COURSEWORK 1\LAB5A\STEALER.CPP
D:\ABERTAY\LABWORK\GRAPHICS PROGRAMMING\COURSEWORK 1\LAB5A\DEBUG\GAME.OBJ
D:\ABERTAY\LABWORK\GRAPHICS PROGRAMMING\COURSEWORK 1\LAB5A\DEBUG\PLAYER.OBJ
D:\ABERTAY\LABWORK\GRAPHICS PROGRAMMING\COURSEWORK 1\LAB5A\DEBUG\STEALER.OBJ
D:\ABERTAY\LABWORK\GRAPHICS PROGRAMMING\COURSEWORK 1\LAB5A\DEBUG\MAIN.OBJ
^D:\ABERTAY\LABWORK\GRAPHICS PROGRAMMING\COURSEWORK 1\LAB5A\CSPRITE.CPP|D:\ABERTAY\LABWORK\GRAPHICS PROGRAMMING\COURSEWORK 1\LAB5A\GAME.CPP|D:\ABERTAY\LABWORK\GRAPHICS PROGRAMMING\COURSEWORK 1\LAB5A\MAIN.CPP|D:\ABERTAY\LABWORK\GRAPHICS PROGRAMMING\COURSEWORK 1\LAB5A\PLAYER.CPP
D:\ABERTAY\LABWORK\GRAPHICS PROGRAMMING\COURSEWORK 1\LAB5A\DEBUG\CSPRITE.OBJ
D:\ABERTAY\LABWORK\GRAPHICS PROGRAMMING\COURSEWORK 1\LAB5A\DEBUG\GAME.OBJ
D:\ABERTAY\LABWORK\GRAPHICS PROGRAMMING\COURSEWORK 1\LAB5A\DEBUG\PLAYER.OBJ
^D:\ABERTAY\LABWORK\GRAPHICS PROGRAMMING\COURSEWORK 1\LAB5A\GAME.CPP|D:\ABERTAY\LABWORK\GRAPHICS PROGRAMMING\COURSEWORK 1\LAB5A\MAIN.CPP|D:\ABERTAY\LABWORK\GRAPHICS PROGRAMMING\COURSEWORK 1\LAB5A\PLAYER.CPP|D:\ABERTAY\LABWORK\GRAPHICS PROGRAMMING\COURSEWORK 1\LAB5A\SPRITE.CPP
D:\ABERTAY\LABWORK\GRAPHICS PROGRAMMING\COURSEWORK 1\LAB5A\DEBUG\SPRITE.OBJ
D:\ABERTAY\LABWORK\GRAPHICS PROGRAMMING\COURSEWORK 1\LAB5A\DEBUG\MAIN.OBJ
D:\ABERTAY\LABWORK\GRAPHICS PROGRAMMING\COURSEWORK 1\LAB5A\DEBUG\PLAYER.OBJ
^D:\ABERTAY\LABWORK\GRAPHICS PROGRAMMING\COURSEWORK 1\LAB5A\ENGINEER.CPP|D:\ABERTAY\LABWORK\GRAPHICS PROGRAMMING\COURSEWORK 1\LAB5A\FIGHTER.CPP|D:\ABERTAY\LABWORK\GRAPHICS PROGRAMMING\COURSEWORK 1\LAB5A\GAME.CPP|D:\ABERTAY\LABWORK\GRAPHICS PROGRAMMING\COURSEWORK 1\LAB5A\MAIN.CPP|D:\ABERTAY\LABWORK\GRAPHICS PROGRAMMING\COURSEWORK 1\LAB5A\PLAYER.CPP|D:\ABERTAY\LABWORK\GRAPHICS PROGRAMMING\COURSEWORK 1\LAB5A\SEEKER.CPP
D:\ABERTAY\LABWORK\GRAPHICS PROGRAMMING\COURSEWORK 1\LAB5A\DEBUG\ENGINEER.OBJ
D:\ABERTAY\LABWORK\GRAPHICS PROGRAMMING\COURSEWORK 1\LAB5A\DEBUG\FIGHTER.OBJ
D:\ABERTAY\LABWORK\GRAPHICS PROGRAMMING\COURSEWORK 1\LAB5A\DEBUG\PLAYER.OBJ
D:\ABERTAY\LABWORK\GRAPHICS PROGRAMMING\COURSEWORK 1\LAB5A\DEBUG\SEEKER.OBJ
^D:\ABERTAY\LABWORK\GRAPHICS PROGRAMMING\COURSEWORK 1\LAB5A\FIGHTER.CPP|D:\ABERTAY\LABWORK\GRAPHICS PROGRAMMING\COURSEWORK 1\LAB5A\GAME.CPP|D:\ABERTAY\LABWORK\GRAPHICS PROGRAMMING\COURSEWORK 1\LAB5A\GRUNT.CPP|D:\ABERTAY\LABWORK\GRAPHICS PROGRAMMING\COURSEWORK 1\LAB5A\MAIN.CPP|D:\ABERTAY\LABWORK\GRAPHICS PROGRAMMING\COURSEWORK 1\LAB5A\PLAYER.CPP
D:\ABERTAY\LABWORK\GRAPHICS PROGRAMMING\COURSEWORK 1\LAB5A\DEBUG\FIGHTER.OBJ
D:\ABERTAY\LABWORK\GRAPHICS PROGRAMMING\COURSEWORK 1\LAB5A\DEBUG\GAME.OBJ
D:\ABERTAY\LABWORK\GRAPHICS PROGRAMMING\COURSEWORK 1\LAB5A\DEBUG\PLAYER.OBJ
^D:\ABERTAY\LABWORK\GRAPHICS PROGRAMMING\COURSEWORK 1\LAB5A\GAME.CPP|D:\ABERTAY\LABWORK\GRAPHICS PROGRAMMING\COURSEWORK 1\LAB5A\GRUNT.CPP|D:\ABERTAY\LABWORK\GRAPHICS PROGRAMMING\COURSEWORK 1\LAB5A\MAIN.CPP|D:\ABERTAY\LABWORK\GRAPHICS PROGRAMMING\COURSEWORK 1\LAB5A\MINER.CPP|D:\ABERTAY\LABWORK\GRAPHICS PROGRAMMING\COURSEWORK 1\LAB5A\PLAYER.CPP
D:\ABERTAY\LABWORK\GRAPHICS PROGRAMMING\COURSEWORK 1\LAB5A\DEBUG\GAME.OBJ
D:\ABERTAY\LABWORK\GRAPHICS PROGRAMMING\COURSEWORK 1\LAB5A\DEBUG\GRUNT.OBJ
D:\ABERTAY\LABWORK\GRAPHICS PROGRAMMING\COURSEWORK 1\LAB5A\DEBUG\MINER.OBJ
D:\ABERTAY\LABWORK\GRAPHICS PROGRAMMING\COURSEWORK 1\LAB5A\DEBUG\PLAYER.OBJ
^D:\ABERTAY\LABWORK\GRAPHICS PROGRAMMING\COURSEWORK 1\LAB5A\BASE.CPP|D:\ABERTAY\LABWORK\GRAPHICS PROGRAMMING\COURSEWORK 1\LAB5A\GAME.CPP|D:\ABERTAY\LABWORK\GRAPHICS PROGRAMMING\COURSEWORK 1\LAB5A\MAIN.CPP|D:\ABERTAY\LABWORK\GRAPHICS PROGRAMMING\COURSEWORK 1\LAB5A\PLAYER.CPP|D:\ABERTAY\LABWORK\GRAPHICS PROGRAMMING\COURSEWORK 1\LAB5A\STEALER.CPP
D:\ABERTAY\LABWORK\GRAPHICS PROGRAMMING\COURSEWORK 1\LAB5A\DEBUG\BASE.OBJ
D:\ABERTAY\LABWORK\GRAPHICS PROGRAMMING\COURSEWORK 1\LAB5A\DEBUG\GAME.OBJ
D:\ABERTAY\LABWORK\GRAPHICS PROGRAMMING\COURSEWORK 1\LAB5A\DEBUG\STEALER.OBJ
D:\ABERTAY\LABWORK\GRAPHICS PROGRAMMING\COURSEWORK 1\LAB5A\DEBUG\PLAYER.OBJ
^D:\ABERTAY\LABWORK\GRAPHICS PROGRAMMING\COURSEWORK 1\LAB5A\ENGINEER.CPP|D:\ABERTAY\LABWORK\GRAPHICS PROGRAMMING\COURSEWORK 1\LAB5A\FIGHTER.CPP|D:\ABERTAY\LABWORK\GRAPHICS PROGRAMMING\COURSEWORK 1\LAB5A\GAME.CPP|D:\ABERTAY\LABWORK\GRAPHICS PROGRAMMING\COURSEWORK 1\LAB5A\MAIN.CPP|D:\ABERTAY\LABWORK\GRAPHICS PROGRAMMING\COURSEWORK 1\LAB5A\PLAYER.CPP
D:\ABERTAY\LABWORK\GRAPHICS PROGRAMMING\COURSEWORK 1\LAB5A\DEBUG\ENGINEER.OBJ
D:\ABERTAY\LABWORK\GRAPHICS PROGRAMMING\COURSEWORK 1\LAB5A\DEBUG\FIGHTER.OBJ
D:\ABERTAY\LABWORK\GRAPHICS PROGRAMMING\COURSEWORK 1\LAB5A\DEBUG\PLAYER.OBJ
^D:\ABERTAY\LABWORK\GRAPHICS PROGRAMMING\COURSEWORK 1\LAB5A\BACKGROUND.CPP|D:\ABERTAY\LABWORK\GRAPHICS PROGRAMMING\COURSEWORK 1\LAB5A\BASE.CPP|D:\ABERTAY\LABWORK\GRAPHICS PROGRAMMING\COURSEWORK 1\LAB5A\CSPRITE.CPP|D:\ABERTAY\LABWORK\GRAPHICS PROGRAMMING\COURSEWORK 1\LAB5A\ENGINEER.CPP|D:\ABERTAY\LABWORK\GRAPHICS PROGRAMMING\COURSEWORK 1\LAB5A\FIGHTER.CPP|D:\ABERTAY\LABWORK\GRAPHICS PROGRAMMING\COURSEWORK 1\LAB5A\GAME.CPP|D:\ABERTAY\LABWORK\GRAPHICS PROGRAMMING\COURSEWORK 1\LAB5A\GRUNT.CPP|D:\ABERTAY\LABWORK\GRAPHICS PROGRAMMING\COURSEWORK 1\LAB5A\HUD.CPP|D:\ABERTAY\LABWORK\GRAPHICS PROGRAMMING\COURSEWORK 1\LAB5A\MAIN.CPP|D:\ABERTAY\LABWORK\GRAPHICS PROGRAMMING\COURSEWORK 1\LAB5A\MINER.CPP|D:\ABERTAY\LABWORK\GRAPHICS PROGRAMMING\COURSEWORK 1\LAB5A\PLAYER.CPP|D:\ABERTAY\LABWORK\GRAPHICS PROGRAMMING\COURSEWORK 1\LAB5A\SEEKER.CPP|D:\ABERTAY\LABWORK\GRAPHICS PROGRAMMING\COURSEWORK 1\LAB5A\SPRITE.CPP|D:\ABERTAY\LABWORK\GRAPHICS PROGRAMMING\COURSEWORK 1\LAB5A\STEALER.CPP|D:\ABERTAY\LABWORK\GRAPHICS PROGRAMMING\COURSEWORK 1\LAB5A\WIZARD.CPP
D:\ABERTAY\LABWORK\GRAPHICS PROGRAMMING\COURSEWORK 1\LAB5A\DEBUG\GAME.OBJ
D:\ABERTAY\LABWORK\GRAPHICS PROGRAMMING\COURSEWORK 1\LAB5A\DEBUG\PLAYER.OBJ
D:\ABERTAY\LABWORK\GRAPHICS PROGRAMMING\COURSEWORK 1\LAB5A\DEBUG\SPRITE.OBJ
D:\ABERTAY\LABWORK\GRAPHICS PROGRAMMING\COURSEWORK 1\LAB5A\DEBUG\CSPRITE.OBJ
D:\ABERTAY\LABWORK\GRAPHICS PROGRAMMING\COURSEWORK 1\LAB5A\DEBUG\HUD.OBJ
^D:\ABERTAY\LABWORK\GRAPHICS PROGRAMMING\COURSEWORK 1\LAB5A\GAME.CPP|D:\ABERTAY\LABWORK\GRAPHICS PROGRAMMING\COURSEWORK 1\LAB5A\MAIN.CPP|D:\ABERTAY\LABWORK\GRAPHICS PROGRAMMING\COURSEWORK 1\LAB5A\MINER.CPP|D:\ABERTAY\LABWORK\GRAPHICS PROGRAMMING\COURSEWORK 1\LAB5A\PLAYER.CPP
D:\ABERTAY\LABWORK\GRAPHICS PROGRAMMING\COURSEWORK 1\LAB5A\DEBUG\MINER.OBJ
D:\ABERTAY\LABWORK\GRAPHICS PROGRAMMING\COURSEWORK 1\LAB5A\DEBUG\PLAYER.OBJ
D:\ABERTAY\LABWORK\GRAPHICS PROGRAMMING\COURSEWORK 1\LAB5A\DEBUG\GAME.OBJ
^D:\ABERTAY\LABWORK\GRAPHICS PROGRAMMING\COURSEWORK 1\LAB5A\BACKGROUND.CPP|D:\ABERTAY\LABWORK\GRAPHICS PROGRAMMING\COURSEWORK 1\LAB5A\BASE.CPP|D:\ABERTAY\LABWORK\GRAPHICS PROGRAMMING\COURSEWORK 1\LAB5A\CSPRITE.CPP|D:\ABERTAY\LABWORK\GRAPHICS PROGRAMMING\COURSEWORK 1\LAB5A\ENGINEER.CPP|D:\ABERTAY\LABWORK\GRAPHICS PROGRAMMING\COURSEWORK 1\LAB5A\FIGHTER.CPP|D:\ABERTAY\LABWORK\GRAPHICS PROGRAMMING\COURSEWORK 1\LAB5A\FONT.CPP|D:\ABERTAY\LABWORK\GRAPHICS PROGRAMMING\COURSEWORK 1\LAB5A\GAME.CPP|D:\ABERTAY\LABWORK\GRAPHICS PROGRAMMING\COURSEWORK 1\LAB5A\GRUNT.CPP|D:\ABERTAY\LABWORK\GRAPHICS PROGRAMMING\COURSEWORK 1\LAB5A\HUD.CPP|D:\ABERTAY\LABWORK\GRAPHICS PROGRAMMING\COURSEWORK 1\LAB5A\INPUT.CPP|D:\ABERTAY\LABWORK\GRAPHICS PROGRAMMING\COURSEWORK 1\LAB5A\MAIN.CPP|D:\ABERTAY\LABWORK\GRAPHICS PROGRAMMING\COURSEWORK 1\LAB5A\MINER.CPP|D:\ABERTAY\LABWORK\GRAPHICS PROGRAMMING\COURSEWORK 1\LAB5A\PLAYER.CPP|D:\ABERTAY\LABWORK\GRAPHICS PROGRAMMING\COURSEWORK 1\LAB5A\SEEKER.CPP|D:\ABERTAY\LABWORK\GRAPHICS PROGRAMMING\COURSEWORK 1\LAB5A\SPRITE.CPP|D:\ABERTAY\LABWORK\GRAPHICS PROGRAMMING\COURSEWORK 1\LAB5A\STEALER.CPP|D:\ABERTAY\LABWORK\GRAPHICS PROGRAMMING\COURSEWORK 1\LAB5A\TILE.CPP|D:\ABERTAY\LABWORK\GRAPHICS PROGRAMMING\COURSEWORK 1\LAB5A\WIZARD.CPP
D:\ABERTAY\LABWORK\GRAPHICS PROGRAMMING\COURSEWORK 1\LAB5A\DEBUG\BACKGROUND.OBJ
D:\ABERTAY\LABWORK\GRAPHICS PROGRAMMING\COURSEWORK 1\LAB5A\DEBUG\FONT.OBJ
D:\ABERTAY\LABWORK\GRAPHICS PROGRAMMING\COURSEWORK 1\LAB5A\DEBUG\HUD.OBJ
D:\ABERTAY\LABWORK\GRAPHICS PROGRAMMING\COURSEWORK 1\LAB5A\DEBUG\INPUT.OBJ
D:\ABERTAY\LABWORK\GRAPHICS PROGRAMMING\COURSEWORK 1\LAB5A\DEBUG\TILE.OBJ
D:\ABERTAY\LABWORK\GRAPHICS PROGRAMMING\COURSEWORK 1\LAB5A\DEBUG\BASE.OBJ
D:\ABERTAY\LABWORK\GRAPHICS PROGRAMMING\COURSEWORK 1\LAB5A\DEBUG\CSPRITE.OBJ
D:\ABERTAY\LABWORK\GRAPHICS PROGRAMMING\COURSEWORK 1\LAB5A\DEBUG\ENGINEER.OBJ
D:\ABERTAY\LABWORK\GRAPHICS PROGRAMMING\COURSEWORK 1\LAB5A\DEBUG\FIGHTER.OBJ
D:\ABERTAY\LABWORK\GRAPHICS PROGRAMMING\COURSEWORK 1\LAB5A\DEBUG\GAME.OBJ
D:\ABERTAY\LABWORK\GRAPHICS PROGRAMMING\COURSEWORK 1\LAB5A\DEBUG\GRUNT.OBJ
D:\ABERTAY\LABWORK\GRAPHICS PROGRAMMING\COURSEWORK 1\LAB5A\DEBUG\MAIN.OBJ
D:\ABERTAY\LABWORK\GRAPHICS PROGRAMMING\COURSEWORK 1\LAB5A\DEBUG\MINER.OBJ
D:\ABERTAY\LABWORK\GRAPHICS PROGRAMMING\COURSEWORK 1\LAB5A\DEBUG\PLAYER.OBJ
D:\ABERTAY\LABWORK\GRAPHICS PROGRAMMING\COURSEWORK 1\LAB5A\DEBUG\SEEKER.OBJ
D:\ABERTAY\LABWORK\GRAPHICS PROGRAMMING\COURSEWORK 1\LAB5A\DEBUG\SPRITE.OBJ
D:\ABERTAY\LABWORK\GRAPHICS PROGRAMMING\COURSEWORK 1\LAB5A\DEBUG\STEALER.OBJ
D:\ABERTAY\LABWORK\GRAPHICS PROGRAMMING\COURSEWORK 1\LAB5A\DEBUG\WIZARD.OBJ
^D:\ABERTAY\LABWORK\GRAPHICS PROGRAMMING\COURSEWORK 1\LAB5A\FIGHTER.CPP|D:\ABERTAY\LABWORK\GRAPHICS PROGRAMMING\COURSEWORK 1\LAB5A\GAME.CPP|D:\ABERTAY\LABWORK\GRAPHICS PROGRAMMING\COURSEWORK 1\LAB5A\GRUNT.CPP|D:\ABERTAY\LABWORK\GRAPHICS PROGRAMMING\COURSEWORK 1\LAB5A\MAIN.CPP|D:\ABERTAY\LABWORK\GRAPHICS PROGRAMMING\COURSEWORK 1\LAB5A\MINER.CPP|D:\ABERTAY\LABWORK\GRAPHICS PROGRAMMING\COURSEWORK 1\LAB5A\PLAYER.CPP
D:\ABERTAY\LABWORK\GRAPHICS PROGRAMMING\COURSEWORK 1\LAB5A\DEBUG\FIGHTER.OBJ
D:\ABERTAY\LABWORK\GRAPHICS PROGRAMMING\COURSEWORK 1\LAB5A\DEBUG\GRUNT.OBJ
D:\ABERTAY\LABWORK\GRAPHICS PROGRAMMING\COURSEWORK 1\LAB5A\DEBUG\MINER.OBJ
D:\ABERTAY\LABWORK\GRAPHICS PROGRAMMING\COURSEWORK 1\LAB5A\DEBUG\GAME.OBJ
D:\ABERTAY\LABWORK\GRAPHICS PROGRAMMING\COURSEWORK 1\LAB5A\DEBUG\MAIN.OBJ
D:\ABERTAY\LABWORK\GRAPHICS PROGRAMMING\COURSEWORK 1\LAB5A\DEBUG\PLAYER.OBJ
^D:\ABERTAY\LABWORK\GRAPHICS PROGRAMMING\COURSEWORK 1\LAB5A\GAME.CPP|D:\ABERTAY\LABWORK\GRAPHICS PROGRAMMING\COURSEWORK 1\LAB5A\MAIN.CPP|D:\ABERTAY\LABWORK\GRAPHICS PROGRAMMING\COURSEWORK 1\LAB5A\MINER.CPP|D:\ABERTAY\LABWORK\GRAPHICS PROGRAMMING\COURSEWORK 1\LAB5A\PLAYER.CPP|D:\ABERTAY\LABWORK\GRAPHICS PROGRAMMING\COURSEWORK 1\LAB5A\SEEKER.CPP|D:\ABERTAY\LABWORK\GRAPHICS PROGRAMMING\COURSEWORK 1\LAB5A\STEALER.CPP
D:\ABERTAY\LABWORK\GRAPHICS PROGRAMMING\COURSEWORK 1\LAB5A\DEBUG\MINER.OBJ
D:\ABERTAY\LABWORK\GRAPHICS PROGRAMMING\COURSEWORK 1\LAB5A\DEBUG\SEEKER.OBJ
D:\ABERTAY\LABWORK\GRAPHICS PROGRAMMING\COURSEWORK 1\LAB5A\DEBUG\STEALER.OBJ
D:\ABERTAY\LABWORK\GRAPHICS PROGRAMMING\COURSEWORK 1\LAB5A\DEBUG\GAME.OBJ
D:\ABERTAY\LABWORK\GRAPHICS PROGRAMMING\COURSEWORK 1\LAB5A\DEBUG\MAIN.OBJ
D:\ABERTAY\LABWORK\GRAPHICS PROGRAMMING\COURSEWORK 1\LAB5A\DEBUG\PLAYER.OBJ
