^C:\USERS\MARK\DOCUMENTS\VISUAL STUDIO 2010\PROJECTS\LAB5A\LAB5A\DEBUG\MAIN.OBJ
C:\PROGRAM FILES (X86)\MICROSOFT SDKS\WINDOWS\V7.0A\LIB\WINMM.LIB
C:\PROGRAM FILES (X86)\MICROSOFT SDKS\WINDOWS\V7.0A\LIB\KERNEL32.LIB
C:\PROGRAM FILES (X86)\MICROSOFT SDKS\WINDOWS\V7.0A\LIB\USER32.LIB
C:\PROGRAM FILES (X86)\MICROSOFT SDKS\WINDOWS\V7.0A\LIB\GDI32.LIB
C:\PROGRAM FILES (X86)\MICROSOFT SDKS\WINDOWS\V7.0A\LIB\WINSPOOL.LIB
C:\PROGRAM FILES (X86)\MICROSOFT SDKS\WINDOWS\V7.0A\LIB\COMDLG32.LIB
C:\PROGRAM FILES (X86)\MICROSOFT SDKS\WINDOWS\V7.0A\LIB\ADVAPI32.LIB
C:\PROGRAM FILES (X86)\MICROSOFT SDKS\WINDOWS\V7.0A\LIB\SHELL32.LIB
C:\PROGRAM FILES (X86)\MICROSOFT SDKS\WINDOWS\V7.0A\LIB\OLE32.LIB
C:\PROGRAM FILES (X86)\MICROSOFT SDKS\WINDOWS\V7.0A\LIB\OLEAUT32.LIB
C:\PROGRAM FILES (X86)\MICROSOFT SDKS\WINDOWS\V7.0A\LIB\UUID.LIB
C:\PROGRAM FILES (X86)\MICROSOFT SDKS\WINDOWS\V7.0A\LIB\ODBC32.LIB
C:\PROGRAM FILES (X86)\MICROSOFT SDKS\WINDOWS\V7.0A\LIB\ODBCCP32.LIB
C:\USERS\MARK\DOCUMENTS\VISUAL STUDIO 2010\PROJECTS\LAB5A\LAB5A\DEBUG\MAIN.OBJ
C:\WINDOWS\GLOBALIZATION\SORTING\SORTDEFAULT.NLS
C:\PROGRAM FILES (X86)\MICROSOFT VISUAL STUDIO 10.0\VC\LIB\MSVCRTD.LIB
C:\PROGRAM FILES (X86)\MICROSOFT VISUAL STUDIO 10.0\VC\LIB\OLDNAMES.LIB
C:\WINDOWS\SYSTEM32\TZRES.DLL
C:\USERS\MARK\DOCUMENTS\VISUAL STUDIO 2010\PROJECTS\LAB5A\DEBUG\LAB5A.EXE
^M:\VISUAL STUDIO 2010\PROJECTS\2012 - 13\GRAPHICS PROGRAMMING\LAB5\LAB5A\LAB5A\DEBUG\MAIN.OBJ
C:\PROGRAM FILES\MICROSOFT SDKS\WINDOWS\V7.0A\LIB\WINMM.LIB
C:\PROGRAM FILES\MICROSOFT SDKS\WINDOWS\V7.0A\LIB\MSIMG32.LIB
C:\PROGRAM FILES\MICROSOFT SDKS\WINDOWS\V7.0A\LIB\KERNEL32.LIB
C:\PROGRAM FILES\MICROSOFT SDKS\WINDOWS\V7.0A\LIB\USER32.LIB
C:\PROGRAM FILES\MICROSOFT SDKS\WINDOWS\V7.0A\LIB\GDI32.LIB
C:\PROGRAM FILES\MICROSOFT SDKS\WINDOWS\V7.0A\LIB\WINSPOOL.LIB
C:\PROGRAM FILES\MICROSOFT SDKS\WINDOWS\V7.0A\LIB\COMDLG32.LIB
C:\PROGRAM FILES\MICROSOFT SDKS\WINDOWS\V7.0A\LIB\ADVAPI32.LIB
C:\PROGRAM FILES\MICROSOFT SDKS\WINDOWS\V7.0A\LIB\SHELL32.LIB
C:\PROGRAM FILES\MICROSOFT SDKS\WINDOWS\V7.0A\LIB\OLE32.LIB
C:\PROGRAM FILES\MICROSOFT SDKS\WINDOWS\V7.0A\LIB\OLEAUT32.LIB
C:\PROGRAM FILES\MICROSOFT SDKS\WINDOWS\V7.0A\LIB\UUID.LIB
C:\PROGRAM FILES\MICROSOFT SDKS\WINDOWS\V7.0A\LIB\ODBC32.LIB
C:\PROGRAM FILES\MICROSOFT SDKS\WINDOWS\V7.0A\LIB\ODBCCP32.LIB
M:\VISUAL STUDIO 2010\PROJECTS\2012 - 13\GRAPHICS PROGRAMMING\LAB5\LAB5A\LAB5A\DEBUG\MAIN.OBJ
C:\WINDOWS\SYSTEM32\TZRES.DLL
M:\VISUAL STUDIO 2010\PROJECTS\2012 - 13\GRAPHICS PROGRAMMING\LAB5\LAB5A\DEBUG\LAB5A.EXE
C:\PROGRAM FILES\MICROSOFT VISUAL STUDIO 10.0\VC\BIN\1033\LINKUI.DLL
C:\WINDOWS\GLOBALIZATION\SORTING\SORTDEFAULT.NLS
C:\PROGRAM FILES\MICROSOFT VISUAL STUDIO 10.0\VC\LIB\MSVCRTD.LIB
C:\PROGRAM FILES\MICROSOFT VISUAL STUDIO 10.0\VC\LIB\OLDNAMES.LIB
^F:\2012 - 13\GRAPHICS PROGRAMMING\LAB5\LAB5A\LAB5A\DEBUG\MAIN.OBJ
C:\WINDOWS\WINSXS\X86_MICROSOFT.VC90.CRT_1FC8B3B9A1E18E3B_9.0.30729.6871_NONE_50944E7CBCB706E5\MSVCR90.DLL
C:\PROGRAM FILES (X86)\MICROSOFT SDKS\WINDOWS\V7.0A\LIB\WINMM.LIB
C:\PROGRAM FILES (X86)\MICROSOFT SDKS\WINDOWS\V7.0A\LIB\MSIMG32.LIB
C:\PROGRAM FILES (X86)\MICROSOFT SDKS\WINDOWS\V7.0A\LIB\KERNEL32.LIB
C:\PROGRAM FILES (X86)\MICROSOFT SDKS\WINDOWS\V7.0A\LIB\USER32.LIB
C:\PROGRAM FILES (X86)\MICROSOFT SDKS\WINDOWS\V7.0A\LIB\GDI32.LIB
C:\PROGRAM FILES (X86)\MICROSOFT SDKS\WINDOWS\V7.0A\LIB\WINSPOOL.LIB
C:\PROGRAM FILES (X86)\MICROSOFT SDKS\WINDOWS\V7.0A\LIB\COMDLG32.LIB
C:\PROGRAM FILES (X86)\MICROSOFT SDKS\WINDOWS\V7.0A\LIB\ADVAPI32.LIB
C:\PROGRAM FILES (X86)\MICROSOFT SDKS\WINDOWS\V7.0A\LIB\SHELL32.LIB
C:\PROGRAM FILES (X86)\MICROSOFT SDKS\WINDOWS\V7.0A\LIB\OLE32.LIB
C:\PROGRAM FILES (X86)\MICROSOFT SDKS\WINDOWS\V7.0A\LIB\OLEAUT32.LIB
C:\PROGRAM FILES (X86)\MICROSOFT SDKS\WINDOWS\V7.0A\LIB\UUID.LIB
C:\PROGRAM FILES (X86)\MICROSOFT SDKS\WINDOWS\V7.0A\LIB\ODBC32.LIB
C:\PROGRAM FILES (X86)\MICROSOFT SDKS\WINDOWS\V7.0A\LIB\ODBCCP32.LIB
F:\2012 - 13\GRAPHICS PROGRAMMING\LAB5\LAB5A\LAB5A\DEBUG\MAIN.OBJ
C:\WINDOWS\SYSTEM32\TZRES.DLL
F:\2012 - 13\GRAPHICS PROGRAMMING\LAB5\LAB5A\DEBUG\LAB5A.ILK
C:\WINDOWS\GLOBALIZATION\SORTING\SORTDEFAULT.NLS
C:\PROGRAM FILES (X86)\MICROSOFT VISUAL STUDIO 10.0\VC\LIB\MSVCRTD.LIB
C:\PROGRAM FILES (X86)\MICROSOFT VISUAL STUDIO 10.0\VC\LIB\OLDNAMES.LIB
F:\2012 - 13\GRAPHICS PROGRAMMING\LAB5\LAB5A\DEBUG\LAB5A.EXE
^M:\GIT\CONTEND\LAB5A\DEBUG\BACKGROUND.OBJ|M:\GIT\CONTEND\LAB5A\DEBUG\BASE.OBJ|M:\GIT\CONTEND\LAB5A\DEBUG\BULLET.OBJ|M:\GIT\CONTEND\LAB5A\DEBUG\CSPRITE.OBJ|M:\GIT\CONTEND\LAB5A\DEBUG\ENGINEER.OBJ|M:\GIT\CONTEND\LAB5A\DEBUG\FIGHTER.OBJ|M:\GIT\CONTEND\LAB5A\DEBUG\FONT.OBJ|M:\GIT\CONTEND\LAB5A\DEBUG\GAME.OBJ|M:\GIT\CONTEND\LAB5A\DEBUG\GRUNT.OBJ|M:\GIT\CONTEND\LAB5A\DEBUG\HUD.OBJ|M:\GIT\CONTEND\LAB5A\DEBUG\INPUT.OBJ|M:\GIT\CONTEND\LAB5A\DEBUG\MAIN.OBJ|M:\GIT\CONTEND\LAB5A\DEBUG\MINER.OBJ|M:\GIT\CONTEND\LAB5A\DEBUG\PLAYER.OBJ|M:\GIT\CONTEND\LAB5A\DEBUG\SEEKER.OBJ|M:\GIT\CONTEND\LAB5A\DEBUG\SPRITE.OBJ|M:\GIT\CONTEND\LAB5A\DEBUG\STEALER.OBJ|M:\GIT\CONTEND\LAB5A\DEBUG\TILE.OBJ|M:\GIT\CONTEND\LAB5A\DEBUG\WIZARD.OBJ
C:\PROGRAM FILES\MICROSOFT SDKS\WINDOWS\V7.0A\LIB\WINMM.LIB
C:\PROGRAM FILES\MICROSOFT SDKS\WINDOWS\V7.0A\LIB\MSIMG32.LIB
C:\PROGRAM FILES\MICROSOFT SDKS\WINDOWS\V7.0A\LIB\KERNEL32.LIB
C:\PROGRAM FILES\MICROSOFT SDKS\WINDOWS\V7.0A\LIB\USER32.LIB
C:\PROGRAM FILES\MICROSOFT SDKS\WINDOWS\V7.0A\LIB\GDI32.LIB
C:\PROGRAM FILES\MICROSOFT SDKS\WINDOWS\V7.0A\LIB\WINSPOOL.LIB
C:\PROGRAM FILES\MICROSOFT SDKS\WINDOWS\V7.0A\LIB\COMDLG32.LIB
C:\PROGRAM FILES\MICROSOFT SDKS\WINDOWS\V7.0A\LIB\ADVAPI32.LIB
C:\PROGRAM FILES\MICROSOFT SDKS\WINDOWS\V7.0A\LIB\SHELL32.LIB
C:\PROGRAM FILES\MICROSOFT SDKS\WINDOWS\V7.0A\LIB\OLE32.LIB
C:\PROGRAM FILES\MICROSOFT SDKS\WINDOWS\V7.0A\LIB\OLEAUT32.LIB
C:\PROGRAM FILES\MICROSOFT SDKS\WINDOWS\V7.0A\LIB\UUID.LIB
C:\PROGRAM FILES\MICROSOFT SDKS\WINDOWS\V7.0A\LIB\ODBC32.LIB
C:\PROGRAM FILES\MICROSOFT SDKS\WINDOWS\V7.0A\LIB\ODBCCP32.LIB
M:\GIT\CONTEND\LAB5A\DEBUG\BACKGROUND.OBJ
M:\GIT\CONTEND\LAB5A\DEBUG\BASE.OBJ
M:\GIT\CONTEND\LAB5A\DEBUG\BULLET.OBJ
M:\GIT\CONTEND\LAB5A\DEBUG\CSPRITE.OBJ
M:\GIT\CONTEND\LAB5A\DEBUG\ENGINEER.OBJ
M:\GIT\CONTEND\LAB5A\DEBUG\FIGHTER.OBJ
M:\GIT\CONTEND\LAB5A\DEBUG\FONT.OBJ
M:\GIT\CONTEND\LAB5A\DEBUG\GAME.OBJ
M:\GIT\CONTEND\LAB5A\DEBUG\GRUNT.OBJ
M:\GIT\CONTEND\LAB5A\DEBUG\HUD.OBJ
M:\GIT\CONTEND\LAB5A\DEBUG\INPUT.OBJ
M:\GIT\CONTEND\LAB5A\DEBUG\MAIN.OBJ
M:\GIT\CONTEND\LAB5A\DEBUG\MINER.OBJ
M:\GIT\CONTEND\LAB5A\DEBUG\PLAYER.OBJ
M:\GIT\CONTEND\LAB5A\DEBUG\SEEKER.OBJ
M:\GIT\CONTEND\LAB5A\DEBUG\SPRITE.OBJ
M:\GIT\CONTEND\LAB5A\DEBUG\STEALER.OBJ
M:\GIT\CONTEND\LAB5A\DEBUG\TILE.OBJ
M:\GIT\CONTEND\LAB5A\DEBUG\WIZARD.OBJ
C:\WINDOWS\SYSTEM32\TZRES.DLL
M:\GIT\CONTEND\DEBUG\LAB5A.EXE
C:\PROGRAM FILES\MICROSOFT VISUAL STUDIO 10.0\VC\BIN\1033\LINKUI.DLL
C:\WINDOWS\GLOBALIZATION\SORTING\SORTDEFAULT.NLS
C:\PROGRAM FILES\MICROSOFT VISUAL STUDIO 10.0\VC\LIB\MSVCRTD.LIB
C:\PROGRAM FILES\MICROSOFT VISUAL STUDIO 10.0\VC\LIB\OLDNAMES.LIB
C:\PROGRAM FILES\MICROSOFT VISUAL STUDIO 10.0\VC\LIB\MSVCPRTD.LIB
^D:\ABERTAY\LABWORK\GRAPHICS PROGRAMMING\COURSEWORK 1\LAB5A\DEBUG\BACKGROUND.OBJ|D:\ABERTAY\LABWORK\GRAPHICS PROGRAMMING\COURSEWORK 1\LAB5A\DEBUG\BASE.OBJ|D:\ABERTAY\LABWORK\GRAPHICS PROGRAMMING\COURSEWORK 1\LAB5A\DEBUG\BULLET.OBJ|D:\ABERTAY\LABWORK\GRAPHICS PROGRAMMING\COURSEWORK 1\LAB5A\DEBUG\CSPRITE.OBJ|D:\ABERTAY\LABWORK\GRAPHICS PROGRAMMING\COURSEWORK 1\LAB5A\DEBUG\ENGINEER.OBJ|D:\ABERTAY\LABWORK\GRAPHICS PROGRAMMING\COURSEWORK 1\LAB5A\DEBUG\FIGHTER.OBJ|D:\ABERTAY\LABWORK\GRAPHICS PROGRAMMING\COURSEWORK 1\LAB5A\DEBUG\FONT.OBJ|D:\ABERTAY\LABWORK\GRAPHICS PROGRAMMING\COURSEWORK 1\LAB5A\DEBUG\GAME.OBJ|D:\ABERTAY\LABWORK\GRAPHICS PROGRAMMING\COURSEWORK 1\LAB5A\DEBUG\GRUNT.OBJ|D:\ABERTAY\LABWORK\GRAPHICS PROGRAMMING\COURSEWORK 1\LAB5A\DEBUG\HUD.OBJ|D:\ABERTAY\LABWORK\GRAPHICS PROGRAMMING\COURSEWORK 1\LAB5A\DEBUG\INPUT.OBJ|D:\ABERTAY\LABWORK\GRAPHICS PROGRAMMING\COURSEWORK 1\LAB5A\DEBUG\MAIN.OBJ|D:\ABERTAY\LABWORK\GRAPHICS PROGRAMMING\COURSEWORK 1\LAB5A\DEBUG\MINER.OBJ|D:\ABERTAY\LABWORK\GRAPHICS PROGRAMMING\COURSEWORK 1\LAB5A\DEBUG\PLAYER.OBJ|D:\ABERTAY\LABWORK\GRAPHICS PROGRAMMING\COURSEWORK 1\LAB5A\DEBUG\SEEKER.OBJ|D:\ABERTAY\LABWORK\GRAPHICS PROGRAMMING\COURSEWORK 1\LAB5A\DEBUG\SPRITE.OBJ|D:\ABERTAY\LABWORK\GRAPHICS PROGRAMMING\COURSEWORK 1\LAB5A\DEBUG\STEALER.OBJ|D:\ABERTAY\LABWORK\GRAPHICS PROGRAMMING\COURSEWORK 1\LAB5A\DEBUG\TILE.OBJ|D:\ABERTAY\LABWORK\GRAPHICS PROGRAMMING\COURSEWORK 1\LAB5A\DEBUG\WIZARD.OBJ
C:\WINDOWS\WINSXS\X86_MICROSOFT.VC90.CRT_1FC8B3B9A1E18E3B_9.0.30729.6871_NONE_50944E7CBCB706E5\MSVCR90.DLL
C:\PROGRAM FILES (X86)\MICROSOFT SDKS\WINDOWS\V7.0A\LIB\WINMM.LIB
C:\PROGRAM FILES (X86)\MICROSOFT SDKS\WINDOWS\V7.0A\LIB\MSIMG32.LIB
C:\PROGRAM FILES (X86)\MICROSOFT SDKS\WINDOWS\V7.0A\LIB\KERNEL32.LIB
C:\PROGRAM FILES (X86)\MICROSOFT SDKS\WINDOWS\V7.0A\LIB\USER32.LIB
C:\PROGRAM FILES (X86)\MICROSOFT SDKS\WINDOWS\V7.0A\LIB\GDI32.LIB
C:\PROGRAM FILES (X86)\MICROSOFT SDKS\WINDOWS\V7.0A\LIB\WINSPOOL.LIB
C:\PROGRAM FILES (X86)\MICROSOFT SDKS\WINDOWS\V7.0A\LIB\COMDLG32.LIB
C:\PROGRAM FILES (X86)\MICROSOFT SDKS\WINDOWS\V7.0A\LIB\ADVAPI32.LIB
C:\PROGRAM FILES (X86)\MICROSOFT SDKS\WINDOWS\V7.0A\LIB\SHELL32.LIB
C:\PROGRAM FILES (X86)\MICROSOFT SDKS\WINDOWS\V7.0A\LIB\OLE32.LIB
C:\PROGRAM FILES (X86)\MICROSOFT SDKS\WINDOWS\V7.0A\LIB\OLEAUT32.LIB
C:\PROGRAM FILES (X86)\MICROSOFT SDKS\WINDOWS\V7.0A\LIB\UUID.LIB
C:\PROGRAM FILES (X86)\MICROSOFT SDKS\WINDOWS\V7.0A\LIB\ODBC32.LIB
C:\PROGRAM FILES (X86)\MICROSOFT SDKS\WINDOWS\V7.0A\LIB\ODBCCP32.LIB
D:\ABERTAY\LABWORK\GRAPHICS PROGRAMMING\COURSEWORK 1\LAB5A\DEBUG\BACKGROUND.OBJ
D:\ABERTAY\LABWORK\GRAPHICS PROGRAMMING\COURSEWORK 1\LAB5A\DEBUG\BASE.OBJ
D:\ABERTAY\LABWORK\GRAPHICS PROGRAMMING\COURSEWORK 1\LAB5A\DEBUG\BULLET.OBJ
D:\ABERTAY\LABWORK\GRAPHICS PROGRAMMING\COURSEWORK 1\LAB5A\DEBUG\CSPRITE.OBJ
D:\ABERTAY\LABWORK\GRAPHICS PROGRAMMING\COURSEWORK 1\LAB5A\DEBUG\ENGINEER.OBJ
D:\ABERTAY\LABWORK\GRAPHICS PROGRAMMING\COURSEWORK 1\LAB5A\DEBUG\FIGHTER.OBJ
D:\ABERTAY\LABWORK\GRAPHICS PROGRAMMING\COURSEWORK 1\LAB5A\DEBUG\FONT.OBJ
D:\ABERTAY\LABWORK\GRAPHICS PROGRAMMING\COURSEWORK 1\LAB5A\DEBUG\GAME.OBJ
D:\ABERTAY\LABWORK\GRAPHICS PROGRAMMING\COURSEWORK 1\LAB5A\DEBUG\GRUNT.OBJ
D:\ABERTAY\LABWORK\GRAPHICS PROGRAMMING\COURSEWORK 1\LAB5A\DEBUG\HUD.OBJ
D:\ABERTAY\LABWORK\GRAPHICS PROGRAMMING\COURSEWORK 1\LAB5A\DEBUG\INPUT.OBJ
D:\ABERTAY\LABWORK\GRAPHICS PROGRAMMING\COURSEWORK 1\LAB5A\DEBUG\MAIN.OBJ
D:\ABERTAY\LABWORK\GRAPHICS PROGRAMMING\COURSEWORK 1\LAB5A\DEBUG\MINER.OBJ
D:\ABERTAY\LABWORK\GRAPHICS PROGRAMMING\COURSEWORK 1\LAB5A\DEBUG\PLAYER.OBJ
D:\ABERTAY\LABWORK\GRAPHICS PROGRAMMING\COURSEWORK 1\LAB5A\DEBUG\SEEKER.OBJ
D:\ABERTAY\LABWORK\GRAPHICS PROGRAMMING\COURSEWORK 1\LAB5A\DEBUG\SPRITE.OBJ
D:\ABERTAY\LABWORK\GRAPHICS PROGRAMMING\COURSEWORK 1\LAB5A\DEBUG\STEALER.OBJ
D:\ABERTAY\LABWORK\GRAPHICS PROGRAMMING\COURSEWORK 1\LAB5A\DEBUG\TILE.OBJ
D:\ABERTAY\LABWORK\GRAPHICS PROGRAMMING\COURSEWORK 1\LAB5A\DEBUG\WIZARD.OBJ
C:\WINDOWS\SYSTEM32\TZRES.DLL
D:\ABERTAY\LABWORK\GRAPHICS PROGRAMMING\COURSEWORK 1\DEBUG\LAB5A.ILK
D:\ABERTAY\LABWORK\GRAPHICS PROGRAMMING\COURSEWORK 1\DEBUG\LAB5A.EXE
C:\PROGRAM FILES (X86)\MICROSOFT VISUAL STUDIO 10.0\VC\BIN\1033\LINKUI.DLL
C:\WINDOWS\GLOBALIZATION\SORTING\SORTDEFAULT.NLS
C:\PROGRAM FILES (X86)\MICROSOFT VISUAL STUDIO 10.0\VC\LIB\MSVCRTD.LIB
C:\PROGRAM FILES (X86)\MICROSOFT VISUAL STUDIO 10.0\VC\LIB\OLDNAMES.LIB
C:\PROGRAM FILES (X86)\MICROSOFT VISUAL STUDIO 10.0\VC\LIB\MSVCPRTD.LIB
